(footprint "CherryMX_ChocV2_1u-3dchocov2" (version 20211014) (generator pcbnew)
  (layer "F.Cu")
  (tedit 5F85C937)
  (attr through_hole)
  (fp_text reference "SW*" (at 5.1 7.95 180) (layer "Dwgs.User") hide
    (effects (font (size 1 1) (thickness 0.15)))
    (tstamp b7cb9c4f-457c-4899-9e47-c2c912dfafde)
  )
  (fp_text value "SW_PUSH" (at 0 7.9 180) (layer "Dwgs.User") hide
    (effects (font (size 1 1) (thickness 0.15)))
    (tstamp 24e9e66e-d01f-4e2c-9418-213ee52f490e)
  )
  (fp_text user "R" (at 5.08 -5.5 unlocked) (layer "B.SilkS")
    (effects (font (size 1 1) (thickness 0.15)) (justify mirror))
    (tstamp 56a3c3bd-7e83-4687-a99d-52434c97b75d)
  )
  (fp_text user "C" (at -5.08 -5.08 unlocked) (layer "B.SilkS")
    (effects (font (size 1 1) (thickness 0.15)) (justify mirror))
    (tstamp 74efc2aa-1e30-4407-8c30-9e87e385bf23)
  )
  (fp_text user "${REFERENCE}" (at -1.27 -8.02 unlocked) (layer "B.SilkS")
    (effects (font (size 1 1) (thickness 0.15)) (justify mirror))
    (tstamp 85f399f4-0952-4d35-9b2b-5f3616d8fe07)
  )
  (fp_text user "C" (at -5.08 -5.08 unlocked) (layer "F.SilkS")
    (effects (font (size 1 1) (thickness 0.15)))
    (tstamp 75596b5d-c738-49b7-b820-cda0e57bfe1c)
  )
  (fp_text user "R" (at 5.08 -5.5 unlocked) (layer "F.SilkS")
    (effects (font (size 1 1) (thickness 0.15)))
    (tstamp b42c18c8-94f3-4be1-85a7-dec13ac9bf46)
  )
  (fp_text user "${REFERENCE}" (at -0.4 -8 unlocked) (layer "F.SilkS")
    (effects (font (size 1 1) (thickness 0.15)))
    (tstamp d0c18b61-d6b3-48e0-a8c9-3b8fb551acc7)
  )
  (fp_text user "${REFERENCE}" (at 0.3 8.2 unlocked) (layer "F.Fab")
    (effects (font (size 1 1) (thickness 0.15)))
    (tstamp 779fa4e4-fdaa-419c-8332-fd4eff880776)
  )
  (fp_line (start -6.985 6.959) (end -6.985 -7.011) (layer "F.SilkS") (width 0.12) (tstamp 00e7d9e8-cf85-4e13-98ba-15262eeadf2c))
  (fp_line (start -6.985 -7.011) (end 6.985 -7.011) (layer "F.SilkS") (width 0.12) (tstamp 2fd414c4-0151-4d2f-9bb7-022d6a075260))
  (fp_line (start 6.985 -7.011) (end 6.985 6.959) (layer "F.SilkS") (width 0.12) (tstamp 7f2fbcd9-d469-4b09-b40e-5802f2ad4b62))
  (fp_line (start 6.985 6.959) (end -6.985 6.959) (layer "F.SilkS") (width 0.12) (tstamp e23cba59-fc89-4f7e-9d15-b17f1f6b22d7))
  (fp_line (start 7 7) (end 7 6) (layer "Dwgs.User") (width 0.15) (tstamp 18bf1f9e-fab6-48f0-b962-651512755af3))
  (fp_line (start -7 -6) (end -7 -7) (layer "Dwgs.User") (width 0.15) (tstamp 1e4c058f-58d1-4b84-96ae-98641774f0cc))
  (fp_line (start -9.525 9.525) (end -9.525 -9.525) (layer "Dwgs.User") (width 0.15) (tstamp 2f5ea405-49d3-41d0-8c86-24d376667370))
  (fp_line (start 9.525 9.525) (end -9.525 9.525) (layer "Dwgs.User") (width 0.15) (tstamp 3ea45ce3-898e-4ef9-a530-16f916ab9a5c))
  (fp_line (start 9.525 -9.525) (end 9.525 9.525) (layer "Dwgs.User") (width 0.15) (tstamp 69679be9-d5b3-4c11-b42c-fc259989ff0b))
  (fp_line (start -7 -7) (end -6 -7) (layer "Dwgs.User") (width 0.15) (tstamp b65d0ec1-5c80-4599-9ea7-2825457a099e))
  (fp_line (start 6 7) (end 7 7) (layer "Dwgs.User") (width 0.15) (tstamp d0db8e39-f761-4779-bef7-41d9edafe766))
  (fp_line (start -9.525 -9.525) (end 9.525 -9.525) (layer "Dwgs.User") (width 0.15) (tstamp e6bba986-be9d-4397-ae35-f26784bca933))
  (pad "" thru_hole circle (at -5 5.15 0.5) (size 2 2) (drill 1) (layers *.Cu *.Mask) (tstamp 2c9b9804-4d58-4e21-886c-3c3f5070e1db))
  (pad "" np_thru_hole circle (at 5.08 0) (size 1.7 1.7) (drill 1.7) (layers *.Cu *.Mask) (tstamp 819cc984-a26b-41c1-b0b9-9adee8fd16e5))
  (pad "" np_thru_hole circle (at 0 0 90) (size 4.8 4.8) (drill 4.8) (layers F&B.Cu *.Mask) (tstamp 85ba3a1f-1bb9-43b0-9bc3-f47bf5861960))
  (pad "" np_thru_hole circle (at -5.22 4.2) (size 0.9906 0.9906) (drill 0.9906) (layers F&B.Cu *.Mask) (tstamp b9decd13-6d86-4083-8046-be4874067cb4))
  (pad "" np_thru_hole circle (at -5.08 0) (size 1.7 1.7) (drill 1.7) (layers *.Cu *.Mask) (tstamp da150bf5-448a-414a-a73f-e4281b7fd766))
  (pad "" np_thru_hole circle (at 5.5 0) (size 1.7 1.7) (drill 1.7) (layers F&B.Cu *.Mask) (tstamp eed1b7bb-52f0-4f58-b1d1-d25dde53d595))
  (pad "" np_thru_hole circle (at -5.5 0) (size 1.7 1.7) (drill 1.7) (layers F&B.Cu *.Mask) (tstamp f9827e20-9757-4e21-8037-a9a7ee2eba85))
  (pad "1" thru_hole circle (at 2.54 -5.08) (size 2.6 2.6) (drill 1.2) (layers *.Cu *.Mask) (tstamp 3cef7a49-ac2f-48a5-954f-9f238a9d3388))
  (pad "1" thru_hole oval (at 0 -5.9) (size 3.1 1.6) (drill oval 1 0.4) (layers *.Cu *.Mask) (tstamp 53e2896e-c227-4ec5-915d-fef01b0922b8))
  (pad "1" thru_hole circle (at 2.5 -4.5) (size 2.3 2.3) (drill 1.524) (layers *.Cu *.Mask) (tstamp ec3c662e-c945-422e-a02a-8ad08c764803))
  (pad "2" thru_hole oval (at 5 -3.8) (size 2.1 1.6) (drill oval 1 0.4) (layers *.Cu *.Mask) (tstamp 1c773f33-653e-4573-ab92-963ddf86ee04))
  (pad "2" thru_hole circle (at -3.81 -2.54) (size 2.4 2.4) (drill 1.2) (layers *.Cu *.Mask) (tstamp a0881cde-7148-44e7-848b-dd6dcd387fdb))
  (pad "2" thru_hole circle (at -2.5 -4) (size 2.4 2.4) (drill 1.524) (layers *.Cu *.Mask) (tstamp a66c4303-b2d7-4bd8-bd1c-74954d033f62))
  (model "/home/drFaustroll/playground/keyboard/m65/m65-pcb/packages3d/ChocV2.wrl"
    (offset (xyz 0 0 0))
    (scale (xyz 1 1 1))
    (rotate (xyz 0 0 0))
  )
)
