
(footprint CHERRY_MX1A-11NN_SWITCH (layer F.Cu) (tedit 63E1DC2A)
  (descr "")
  (fp_text reference REF** (at -3.175 -5.715 0) (layer F.SilkS)
    (effects (font (size 1.0 1.0) (thickness 0.15)))
  )
  (fp_text value "CHERRY_MX1A-11NN_SWITCH" (at 0 0) (layer F.Fab)
    (effects (font (size 0.787401574803 0.787401574803) (thickness 0.15)))
  )
  (pad P$1 thru_hole circle (at 2.51 -5.08) (size 2.25 2.25) (drill 1.5) (layers *.Cu *.Mask))
  (pad P$2 thru_hole circle (at -3.81 -2.54) (size 2.25 2.25) (drill 1.5) (layers *.Cu *.Mask))
  (pad BR1 thru_hole circle (at -3.81 5.08) (size 1.508 1.508) (drill 1.0) (layers *.Cu *.Mask))
  (pad BR2 thru_hole circle (at 3.81 5.08) (size 1.508 1.508) (drill 1.0) (layers *.Cu *.Mask))
  (pad None np_thru_hole circle (at 0.0 0.0) (size 3.9878 3.9878) (drill 3.9878) (layers *.Cu *.Mask))
  (pad None np_thru_hole circle (at 5.0 0.0) (size 1.7 1.7) (drill 1.7) (layers *.Cu *.Mask))
  (pad None np_thru_hole circle (at -5.0 0.0) (size 1.7 1.7) (drill 1.7) (layers *.Cu *.Mask))
  (fp_line (start 7.62 7.62) (end -7.62 7.62) (layer F.SilkS) (width 0.127))
  (fp_line (start -7.62 7.62) (end -7.62 -7.62) (layer F.SilkS) (width 0.127))
  (fp_line (start -7.62 -7.62) (end 7.62 -7.62) (layer F.SilkS) (width 0.127))
  (fp_line (start 7.62 -7.62) (end 7.62 7.62) (layer F.SilkS) (width 0.127))
)