(footprint "LegoHole_31u_4875" (version 20211014) (generator pcbnew)
  (layer "F.Cu")
  (tedit 61D86E9B)
  (descr "Mounting Hole 4.9mm, no annular")
  (tags "mounting hole 4.9mm, no annular")
  (property "Sheetfile" "m65.kicad_sch")
  (property "Sheetname" "")
  (attr exclude_from_pos_files exclude_from_bom)
  (fp_text reference "H?" (at 2.794 3.048) (layer "F.SilkS") hide
    (effects (font (size 1 1) (thickness 0.15)))
    (tstamp 48093584-e6d1-41cf-8ecd-fd4b2710fe7a)
  )
  (fp_text value "MountingHole" (at 2.54 -5.08) (layer "F.Fab") hide
    (effects (font (size 1 1) (thickness 0.15)))
    (tstamp 7c65f2ea-b53e-42ce-89d6-b9f96fa43a98)
  )
  (fp_text user "${REFERENCE}" (at 32.3 0) (layer "F.Fab")
    (effects (font (size 1 1) (thickness 0.15)))
    (tstamp 1831b922-f359-4998-96a2-17e78f534518)
  )
  (fp_text user "${REFERENCE}" (at 184.3 0) (layer "F.Fab")
    (effects (font (size 1 1) (thickness 0.15)))
    (tstamp 1ffb6183-e299-44d5-9153-17a3cc4b8635)
  )
  (fp_text user "${REFERENCE}" (at 216.3 0) (layer "F.Fab")
    (effects (font (size 1 1) (thickness 0.15)))
    (tstamp 2ee64bb8-8ada-494f-a891-b1dca536710b)
  )
  (fp_text user "${REFERENCE}" (at 0.3 0) (layer "F.Fab")
    (effects (font (size 1 1) (thickness 0.15)))
    (tstamp 423dca81-438a-4a92-a502-8495bed4f42e)
  )
  (fp_text user "${REFERENCE}" (at 208.3 0) (layer "F.Fab")
    (effects (font (size 1 1) (thickness 0.15)))
    (tstamp 4cb0485b-7154-43e0-845c-1124024ec03a)
  )
  (fp_text user "${REFERENCE}" (at 48.3 0) (layer "F.Fab")
    (effects (font (size 1 1) (thickness 0.15)))
    (tstamp 506abdd1-b58c-49ab-af17-f2bcc1fe35ae)
  )
  (fp_text user "${REFERENCE}" (at 232.3 0) (layer "F.Fab")
    (effects (font (size 1 1) (thickness 0.15)))
    (tstamp 5184a570-3fcf-4bef-9bf9-f001f8b93951)
  )
  (fp_text user "${REFERENCE}" (at 168.3 0) (layer "F.Fab")
    (effects (font (size 1 1) (thickness 0.15)))
    (tstamp 619d1278-5ed4-4184-8221-e548429781ca)
  )
  (fp_text user "${REFERENCE}" (at 200.3 0) (layer "F.Fab")
    (effects (font (size 1 1) (thickness 0.15)))
    (tstamp 64c63a73-bbe4-4f64-bad6-5496558fb34c)
  )
  (fp_text user "${REFERENCE}" (at 120.3 0) (layer "F.Fab")
    (effects (font (size 1 1) (thickness 0.15)))
    (tstamp 74c34d0e-112e-4e62-b9a0-64e4f5c2c5f0)
  )
  (fp_text user "${REFERENCE}" (at 144.3 0) (layer "F.Fab")
    (effects (font (size 1 1) (thickness 0.15)))
    (tstamp 75993587-6586-4b1c-9799-66bbc5db992c)
  )
  (fp_text user "${REFERENCE}" (at 96.3 0) (layer "F.Fab")
    (effects (font (size 1 1) (thickness 0.15)))
    (tstamp 9306c23d-579f-4b24-ad35-dc882dcca42d)
  )
  (fp_text user "${REFERENCE}" (at 24.3 0) (layer "F.Fab")
    (effects (font (size 1 1) (thickness 0.15)))
    (tstamp 959514f7-9469-4836-a425-9ae737f0e0bf)
  )
  (fp_text user "${REFERENCE}" (at 160.3 0) (layer "F.Fab")
    (effects (font (size 1 1) (thickness 0.15)))
    (tstamp 9f37e099-02f8-4612-a27a-bf173f4a20a1)
  )
  (fp_text user "${REFERENCE}" (at 104.3 0) (layer "F.Fab")
    (effects (font (size 1 1) (thickness 0.15)))
    (tstamp a243dcf3-0dc3-40dc-8e17-7382fa241e62)
  )
  (fp_text user "${REFERENCE}" (at 88.3 0) (layer "F.Fab")
    (effects (font (size 1 1) (thickness 0.15)))
    (tstamp a81e6da1-2200-47e8-a3b5-87f334f96bed)
  )
  (fp_text user "${REFERENCE}" (at 40.3 0) (layer "F.Fab")
    (effects (font (size 1 1) (thickness 0.15)))
    (tstamp b039acb2-f474-44fe-b0b8-36fadfc621d5)
  )
  (fp_text user "${REFERENCE}" (at -8 -0.3 90) (layer "F.Fab")
    (effects (font (size 1 1) (thickness 0.15)))
    (tstamp b8955c1e-63e2-437d-a3ab-88d358cb765d)
  )
  (fp_text user "${REFERENCE}" (at 80.3 0) (layer "F.Fab")
    (effects (font (size 1 1) (thickness 0.15)))
    (tstamp b93ab47b-a949-4cdd-8687-9613754a71d9)
  )
  (fp_text user "${REFERENCE}" (at 136.3 0) (layer "F.Fab")
    (effects (font (size 1 1) (thickness 0.15)))
    (tstamp c083f16c-8e14-4b1b-83ff-3424c45d4be9)
  )
  (fp_text user "${REFERENCE}" (at 64.3 0) (layer "F.Fab")
    (effects (font (size 1 1) (thickness 0.15)))
    (tstamp c2aebd6d-2a32-44db-b10d-f002ebd2472f)
  )
  (fp_text user "${REFERENCE}" (at 56.3 0) (layer "F.Fab")
    (effects (font (size 1 1) (thickness 0.15)))
    (tstamp ca54fb5b-4914-4634-b0d9-a30ef2ffb1a8)
  )
  (fp_text user "${REFERENCE}" (at 16.3 0) (layer "F.Fab")
    (effects (font (size 1 1) (thickness 0.15)))
    (tstamp cc7682bf-fffa-437c-8f7f-5fb85c234119)
  )
  (fp_text user "${REFERENCE}" (at 152.3 0) (layer "F.Fab")
    (effects (font (size 1 1) (thickness 0.15)))
    (tstamp d4fe94f4-e540-4c5c-a6b5-056928b4c85a)
  )
  (fp_text user "${REFERENCE}" (at 192.3 0) (layer "F.Fab")
    (effects (font (size 1 1) (thickness 0.15)))
    (tstamp dab16e30-6166-4692-a017-564a9dd42c6f)
  )
  (fp_text user "${REFERENCE}" (at 224.3 0) (layer "F.Fab")
    (effects (font (size 1 1) (thickness 0.15)))
    (tstamp efa67298-935a-471d-8664-eaebcdb280ab)
  )
  (fp_text user "${REFERENCE}" (at 72.3 0) (layer "F.Fab")
    (effects (font (size 1 1) (thickness 0.15)))
    (tstamp f308d32a-b8db-4fab-94e2-f8338721f33a)
  )
  (fp_text user "${REFERENCE}" (at 176.3 0) (layer "F.Fab")
    (effects (font (size 1 1) (thickness 0.15)))
    (tstamp f4bcd2cf-75e1-40a4-9a64-71ec2a19d8d5)
  )
  (fp_text user "${REFERENCE}" (at 8.3 0) (layer "F.Fab")
    (effects (font (size 1 1) (thickness 0.15)))
    (tstamp fd4e1187-ceb8-4926-ace6-069992b37568)
  )
  (fp_text user "${REFERENCE}" (at 128.3 0) (layer "F.Fab")
    (effects (font (size 1 1) (thickness 0.15)))
    (tstamp fd4e9c77-ca4c-4fbc-9e00-c9c8e5a66e4c)
  )
  (fp_text user "${REFERENCE}" (at 112.3 0) (layer "F.Fab")
    (effects (font (size 1 1) (thickness 0.15)))
    (tstamp ff4f80ef-4d20-40a0-ba7d-159f2eeb3d1d)
  )
  (fp_line (start -4.05 3.95) (end -4.05 -3.95) (layer "F.SilkS") (width 0.1) (tstamp 2f410e10-d9e9-42ae-866e-23fbefe006db))
  (fp_line (start -8 -3.95) (end -4.05 -3.95) (layer "F.SilkS") (width 0.1) (tstamp 340d4cef-4726-41e1-af63-0cc1829ef3d9))
  (fp_line (start -11.95 3.95) (end -4.05 3.95) (layer "F.SilkS") (width 0.1) (tstamp 5038f6d6-4a03-4dc1-8cdd-ce7f224530d6))
  (fp_line (start -11.95 0) (end -11.95 3.95) (layer "F.SilkS") (width 0.1) (tstamp e899561c-db2e-4436-a50b-fabbfd1b933e))
  (fp_rect (start 20.05 -3.95) (end 27.95 3.95) (layer "F.SilkS") (width 0.1) (fill none) (tstamp 06330687-b879-4879-9472-b6296898dbd7))
  (fp_rect (start 76.05 -3.95) (end 83.95 3.95) (layer "F.SilkS") (width 0.1) (fill none) (tstamp 0e466e87-e049-47dd-a1c5-7dd1ef63bb21))
  (fp_rect (start 84.05 -3.95) (end 91.95 3.95) (layer "F.SilkS") (width 0.1) (fill none) (tstamp 16eaaba7-9a2a-4454-b7c6-d9fe48773a10))
  (fp_rect (start 4.05 -3.95) (end 11.95 3.95) (layer "F.SilkS") (width 0.1) (fill none) (tstamp 1a827f43-ce50-4933-bc28-ad4eb6bc981e))
  (fp_rect (start 172.05 -3.95) (end 179.95 3.95) (layer "F.SilkS") (width 0.1) (fill none) (tstamp 2be9dbf7-7569-424e-a38c-d30019351c73))
  (fp_rect (start 164.05 -3.95) (end 171.95 3.95) (layer "F.SilkS") (width 0.1) (fill none) (tstamp 2d883ae3-3fe3-4e35-b261-2438e5ed972b))
  (fp_rect (start 204.05 -3.95) (end 211.95 3.95) (layer "F.SilkS") (width 0.1) (fill none) (tstamp 3f518bcd-6e3e-4bb7-961d-1a680160f7bc))
  (fp_rect (start 132.05 -3.95) (end 139.95 3.95) (layer "F.SilkS") (width 0.1) (fill none) (tstamp 40ad7f9c-17ce-4b7f-ae46-1bf2dab6e820))
  (fp_rect (start 156.05 -3.95) (end 163.95 3.95) (layer "F.SilkS") (width 0.1) (fill none) (tstamp 451ac403-80ea-4fb5-a292-2447db0f5807))
  (fp_rect (start 124.05 -3.95) (end 131.95 3.95) (layer "F.SilkS") (width 0.1) (fill none) (tstamp 4c4ac5d0-c0ec-470f-b799-a274b264d17b))
  (fp_rect (start 116.05 -3.95) (end 123.95 3.95) (layer "F.SilkS") (width 0.1) (fill none) (tstamp 4ce35955-917b-422a-9c12-3718a725bb8b))
  (fp_rect (start 100.05 -3.95) (end 107.95 3.95) (layer "F.SilkS") (width 0.1) (fill none) (tstamp 4ec47dec-3c0a-4f3b-b216-9f091f207e2a))
  (fp_rect (start 188.05 -3.95) (end 195.95 3.95) (layer "F.SilkS") (width 0.1) (fill none) (tstamp 518d7714-364c-4ec5-a538-73133b331b6f))
  (fp_rect (start 228.05 -3.95) (end 235.95 3.95) (layer "F.SilkS") (width 0.1) (fill none) (tstamp 5a678a62-e1a4-4a50-9c8d-9059dfc4e1d3))
  (fp_rect (start 108.05 -3.95) (end 115.95 3.95) (layer "F.SilkS") (width 0.1) (fill none) (tstamp 5a69f18d-7705-4866-9de5-419ef4dec561))
  (fp_rect (start 220.05 -3.95) (end 227.95 3.95) (layer "F.SilkS") (width 0.1) (fill none) (tstamp 6b19e5a1-a8cc-4781-9c78-5662433a8096))
  (fp_rect (start 28.05 -3.95) (end 35.95 3.95) (layer "F.SilkS") (width 0.1) (fill none) (tstamp 7b565960-6f66-4421-adca-892156b2292a))
  (fp_rect (start 148.05 -3.95) (end 155.95 3.95) (layer "F.SilkS") (width 0.1) (fill none) (tstamp 909a507b-aa20-46ff-86b1-967910aeb454))
  (fp_rect (start 52.05 -3.95) (end 59.95 3.95) (layer "F.SilkS") (width 0.1) (fill none) (tstamp 9b7047a4-a16f-448c-83cc-760b74705564))
  (fp_rect (start -3.95 -3.95) (end 3.95 3.95) (layer "F.SilkS") (width 0.1) (fill none) (tstamp a3d29f22-0e01-4390-a292-bea1307b00b2))
  (fp_rect (start 180.05 -3.95) (end 187.95 3.95) (layer "F.SilkS") (width 0.1) (fill none) (tstamp a6536a28-34bb-4790-aaf1-3cb25df54690))
  (fp_rect (start 140.05 -3.95) (end 147.95 3.95) (layer "F.SilkS") (width 0.1) (fill none) (tstamp a98de566-05e1-40a7-9643-d95a20713c55))
  (fp_rect (start 196.05 -3.95) (end 203.95 3.95) (layer "F.SilkS") (width 0.1) (fill none) (tstamp cc1a11f9-3ebd-4ff9-a89b-f2bdec168966))
  (fp_rect (start 12.05 -3.95) (end 19.95 3.95) (layer "F.SilkS") (width 0.1) (fill none) (tstamp d49f1ce6-155e-4a53-9d38-a06647b6a554))
  (fp_rect (start 60.05 -3.95) (end 67.95 3.95) (layer "F.SilkS") (width 0.1) (fill none) (tstamp dc423380-0dc5-49ef-8be9-94f04b68efb3))
  (fp_rect (start 68.05 -3.95) (end 75.95 3.95) (layer "F.SilkS") (width 0.1) (fill none) (tstamp e1b911e3-9c58-4ad3-b85d-d6b08745f83b))
  (fp_rect (start 92.05 -3.95) (end 99.95 3.95) (layer "F.SilkS") (width 0.1) (fill none) (tstamp e6d1e78d-6ae9-4f0d-8338-032a8e84ecbb))
  (fp_rect (start 44.05 -3.95) (end 51.95 3.95) (layer "F.SilkS") (width 0.1) (fill none) (tstamp ed2ec11c-590a-407b-928c-3b08b83ae140))
  (fp_rect (start 212.05 -3.95) (end 219.95 3.95) (layer "F.SilkS") (width 0.1) (fill none) (tstamp f6c9aef5-6973-4b7f-91bf-d737efe79fd9))
  (fp_rect (start 36.05 -3.95) (end 43.95 3.95) (layer "F.SilkS") (width 0.1) (fill none) (tstamp f78c12b3-e688-4d82-98c1-a2962039ab39))
  (fp_arc (start -11.95 0) (mid -10.793072 -2.793072) (end -8 -3.95) (layer "F.SilkS") (width 0.1) (tstamp e65a2f1d-1fe1-4d62-995e-01bc616bc849))
  (fp_line (start 235.9 -3.9) (end 235.9 3.9) (layer "F.CrtYd") (width 0.12) (tstamp e356663c-c4f6-4758-ac07-5a5e198fdd3f))
  (fp_line (start 235.9 -3.9) (end -8 -3.9) (layer "F.CrtYd") (width 0.12) (tstamp ed2915bb-68f3-4e85-ac70-fd897197cebd))
  (fp_line (start -11.9 3.9) (end -11.9 0) (layer "F.CrtYd") (width 0.12) (tstamp f300e55f-4476-471a-9d39-2206d46ebae3))
  (fp_line (start -11.9 3.9) (end 235.9 3.9) (layer "F.CrtYd") (width 0.12) (tstamp f8927f0f-6b07-4af5-a14b-5b7b3bfeaac0))
  (fp_arc (start -11.9 0) (mid -10.757716 -2.757716) (end -8 -3.9) (layer "F.CrtYd") (width 0.12) (tstamp 326a9c43-7ef5-48d4-9d9a-3c40a7e16528))
  (pad "" np_thru_hole circle (at 24 0) (size 4.875 4.875) (drill 4.875) (layers F&B.Cu *.Mask) (tstamp 1b88aa36-64fa-4296-89cc-786514c5985d))
  (pad "" np_thru_hole circle (at 120 0) (size 4.875 4.875) (drill 4.875) (layers F&B.Cu *.Mask) (tstamp 1dd03ebf-e2be-43ed-a6d3-1cb2b09ea0d3))
  (pad "" np_thru_hole circle (at 88 0) (size 4.875 4.875) (drill 4.875) (layers F&B.Cu *.Mask) (tstamp 2196e1ce-41d1-452a-b90c-1f645345804e))
  (pad "" np_thru_hole circle (at 32 0) (size 4.875 4.875) (drill 4.875) (layers F&B.Cu *.Mask) (tstamp 2663d779-5e07-4fad-b07f-5671b4b0b03b))
  (pad "" np_thru_hole circle (at -8 0 90) (size 4.875 4.875) (drill 4.875) (layers F&B.Cu *.Mask) (tstamp 2a610bce-6308-4c97-a791-63f8543d9321))
  (pad "" np_thru_hole circle (at 200 0) (size 4.875 4.875) (drill 4.875) (layers F&B.Cu *.Mask) (tstamp 3ea0976d-e206-4c70-b786-4770d977b9d2))
  (pad "" np_thru_hole circle (at 176 0) (size 4.875 4.875) (drill 4.875) (layers F&B.Cu *.Mask) (tstamp 415feba3-efd0-4b4c-8c93-8b5250fd9411))
  (pad "" np_thru_hole circle (at 144 0) (size 4.875 4.875) (drill 4.875) (layers F&B.Cu *.Mask) (tstamp 44f36c4e-4895-4309-a4d7-3751ad5702f9))
  (pad "" np_thru_hole circle (at 184 0) (size 4.875 4.875) (drill 4.875) (layers F&B.Cu *.Mask) (tstamp 46794c4f-341d-486c-a97a-4cf50bded091))
  (pad "" np_thru_hole circle (at 72 0) (size 4.875 4.875) (drill 4.875) (layers F&B.Cu *.Mask) (tstamp 4f4fb640-f757-4f8d-9acb-f498345d9462))
  (pad "" np_thru_hole circle (at 112 0) (size 4.875 4.875) (drill 4.875) (layers F&B.Cu *.Mask) (tstamp 568ccc0d-8003-41a3-b64c-44e7b96999a2))
  (pad "" np_thru_hole circle (at 48 0) (size 4.875 4.875) (drill 4.875) (layers F&B.Cu *.Mask) (tstamp 56dfd4fb-7c4e-43e3-8eb0-e78ac8d1d0f8))
  (pad "" np_thru_hole circle (at 56 0) (size 4.875 4.875) (drill 4.875) (layers F&B.Cu *.Mask) (tstamp 589e1659-8097-47cb-93aa-b9108f5f22ef))
  (pad "" np_thru_hole circle (at 96 0) (size 4.875 4.875) (drill 4.875) (layers F&B.Cu *.Mask) (tstamp 5b356214-3d31-46d9-a22d-8b4a209b7911))
  (pad "" np_thru_hole circle (at 104 0) (size 4.875 4.875) (drill 4.875) (layers F&B.Cu *.Mask) (tstamp 5ea2b527-3999-4c7a-b044-74c980c44ef8))
  (pad "" np_thru_hole circle (at 168 0) (size 4.875 4.875) (drill 4.875) (layers F&B.Cu *.Mask) (tstamp 60615d8b-b7b1-443e-bb5c-c46966408a9c))
  (pad "" np_thru_hole circle (at 128 0) (size 4.875 4.875) (drill 4.875) (layers F&B.Cu *.Mask) (tstamp 63e9cdd2-fd86-4e06-ba96-7d3ce8c7893b))
  (pad "" np_thru_hole circle (at 16 0) (size 4.875 4.875) (drill 4.875) (layers F&B.Cu *.Mask) (tstamp 6dbe6fdc-038b-4f76-a984-117a6e3722fd))
  (pad "" np_thru_hole circle (at 0 0) (size 4.875 4.875) (drill 4.875) (layers F&B.Cu *.Mask) (tstamp 74e62f8f-ca0c-4f3c-9f65-19e16a1e775d))
  (pad "" np_thru_hole circle (at 232 0) (size 4.875 4.875) (drill 4.875) (layers F&B.Cu *.Mask) (tstamp 83d6d497-8cd4-4806-9318-75101a77074d))
  (pad "" np_thru_hole circle (at 152 0) (size 4.875 4.875) (drill 4.875) (layers F&B.Cu *.Mask) (tstamp 93f08d89-8b77-4dec-a221-d70f9b929717))
  (pad "" np_thru_hole circle (at 208 0) (size 4.875 4.875) (drill 4.875) (layers F&B.Cu *.Mask) (tstamp 9ce3155c-29bb-4a16-8c95-53c7a820d11a))
  (pad "" np_thru_hole circle (at 136 0) (size 4.875 4.875) (drill 4.875) (layers F&B.Cu *.Mask) (tstamp 9d110faa-1344-4699-bd3a-f1f3bf569914))
  (pad "" np_thru_hole circle (at 80 0) (size 4.875 4.875) (drill 4.875) (layers F&B.Cu *.Mask) (tstamp a6b67852-dab5-48c8-ac50-7547e426b55c))
  (pad "" np_thru_hole circle (at 64 0) (size 4.875 4.875) (drill 4.875) (layers F&B.Cu *.Mask) (tstamp cabdd4cc-0644-46a5-881f-9bc277487784))
  (pad "" np_thru_hole circle (at 8 0) (size 4.875 4.875) (drill 4.875) (layers F&B.Cu *.Mask) (tstamp d8dcfd47-0bce-45b1-b324-5e82b1a8a5ca))
  (pad "" np_thru_hole circle (at 224 0) (size 4.875 4.875) (drill 4.875) (layers F&B.Cu *.Mask) (tstamp dc3614b7-23f8-4e34-bddf-412a20676161))
  (pad "" np_thru_hole circle (at 40 0) (size 4.875 4.875) (drill 4.875) (layers F&B.Cu *.Mask) (tstamp ea248f08-00df-4948-b8ba-590b284419b9))
  (pad "" np_thru_hole circle (at 216 0) (size 4.875 4.875) (drill 4.875) (layers F&B.Cu *.Mask) (tstamp eff549ba-7bae-461f-ba22-784321cfacf1))
  (pad "" np_thru_hole circle (at 160 0) (size 4.875 4.875) (drill 4.875) (layers F&B.Cu *.Mask) (tstamp f7739d18-e24d-43ea-ba17-35ecf669e31d))
  (pad "" np_thru_hole circle (at 192 0) (size 4.875 4.875) (drill 4.875) (layers F&B.Cu *.Mask) (tstamp fc745afd-f547-4776-9688-1c923fd7ca2c))
)
