(footprint "SK6812-MINI-E-pins"
	(version 20240108)
	(generator "pcbnew")
	(generator_version "8.0")
	(layer "F.Cu")
	(property "Reference" "Led**"
		(at -0.44 -2.64 180)
		(unlocked yes)
		(layer "B.SilkS")
		(uuid "b02e57e4-5b65-4da5-ad44-7603b5ea0a4c")
		(effects
			(font
				(size 0.7 0.7)
				(thickness 0.15)
			)
			(justify mirror)
		)
	)
	(property "Value" "SK6812MINIe"
		(at 0 0.5 0)
		(unlocked yes)
		(layer "F.SilkS")
		(hide yes)
		(uuid "f6c18408-f6b1-4052-8055-0b5a724e0552")
		(effects
			(font
				(size 1 1)
				(thickness 0.15)
			)
		)
	)
	(property "Footprint" ""
		(at 0 0 0)
		(unlocked yes)
		(layer "F.Fab")
		(hide yes)
		(uuid "8f438018-d46b-4bce-b039-ec34fa42d6e4")
		(effects
			(font
				(size 1.27 1.27)
			)
		)
	)
	(property "Datasheet" ""
		(at 0 0 0)
		(unlocked yes)
		(layer "F.Fab")
		(hide yes)
		(uuid "6ec880dd-f1fe-41e4-ab2d-cf5e4f9c47c1")
		(effects
			(font
				(size 1.27 1.27)
			)
		)
	)
	(property "Description" ""
		(at 0 0 0)
		(unlocked yes)
		(layer "F.Fab")
		(hide yes)
		(uuid "10065f0a-4440-407a-ad5d-c1ed27be1698")
		(effects
			(font
				(size 1.27 1.27)
			)
		)
	)
	(attr through_hole)
	(fp_circle
		(center -3.9 0.75)
		(end -3.75 0.75)
		(stroke
			(width 0.1)
			(type solid)
		)
		(fill solid)
		(layer "F.SilkS")
		(uuid "b5580473-639b-4369-9fe2-75934b354b99")
	)
	(fp_poly
		(pts
			(xy 2.8 -1.4) (xy 2.2 -1.4) (xy 2.2 -2)
		)
		(stroke
			(width 0.1)
			(type solid)
		)
		(fill solid)
		(layer "F.SilkS")
		(uuid "d621cfc1-5692-4c4a-8d44-413443b9af96")
	)
	(fp_line
		(start -1.7 -1.5)
		(end 1.1 -1.5)
		(stroke
			(width 0.1)
			(type solid)
		)
		(layer "Edge.Cuts")
		(uuid "524fe7a5-fcba-476c-b5eb-077c7670b6e4")
	)
	(fp_line
		(start -1.7 1.5)
		(end -1.7 -1.5)
		(stroke
			(width 0.1)
			(type solid)
		)
		(layer "Edge.Cuts")
		(uuid "354e1227-7f44-4fbe-91cc-8343cbc87a87")
	)
	(fp_line
		(start 1.1 -1.5)
		(end 1.7 -0.9)
		(stroke
			(width 0.1)
			(type default)
		)
		(layer "Edge.Cuts")
		(uuid "f7402b90-78fd-4005-9d0e-1dfc8f8f3df0")
	)
	(fp_line
		(start 1.7 -0.9)
		(end 1.7 1.5)
		(stroke
			(width 0.1)
			(type solid)
		)
		(layer "Edge.Cuts")
		(uuid "7bff9349-4e5a-44e1-9187-af6e3d0903fa")
	)
	(fp_line
		(start 1.7 1.5)
		(end -1.7 1.5)
		(stroke
			(width 0.1)
			(type solid)
		)
		(layer "Edge.Cuts")
		(uuid "ce719c4a-22cf-42bf-bfe0-3903a41379e2")
	)
	(fp_text user "${REFERENCE}"
		(at -0.01 2.58 0)
		(unlocked yes)
		(layer "B.SilkS")
		(uuid "8c0439a0-c39c-4854-a800-7311dc758c93")
		(effects
			(font
				(size 0.7 0.7)
				(thickness 0.15)
			)
			(justify mirror)
		)
	)
	(fp_text user "${REFERENCE}"
		(at -0.34 -2.67 180)
		(unlocked yes)
		(layer "F.SilkS")
		(uuid "3b5ecfd1-bfa1-47f6-a6d7-23867b20bd0e")
		(effects
			(font
				(size 0.7 0.7)
				(thickness 0.15)
			)
		)
	)
	(fp_text user "${REFERENCE}"
		(at 0 2.56 0)
		(unlocked yes)
		(layer "F.SilkS")
		(uuid "795a0822-fae7-4a2b-b8a8-2d4c280c4c94")
		(effects
			(font
				(size 0.7 0.7)
				(thickness 0.15)
			)
		)
	)
	(pad "1" smd rect
		(at -2.635 0.75)
		(size 1.67 0.82)
		(layers "F.Cu" "F.Paste" "F.Mask")
		(uuid "4fbe0c92-e576-456f-aa95-d0bc7539b3ed")
	)
	(pad "1" thru_hole circle
		(at -2.15 0.75)
		(size 0.5 0.5)
		(drill 0.3)
		(layers "*.Cu" "*.Mask")
		(remove_unused_layers no)
		(uuid "7d755ad8-138e-4969-b8ca-e054c299b0bd")
	)
	(pad "2" smd rect
		(at -2.635 -0.75)
		(size 1.67 0.82)
		(layers "F.Cu" "F.Paste" "F.Mask")
		(uuid "ef33d188-72d8-48f7-b336-d18dbfba536c")
	)
	(pad "2" thru_hole circle
		(at -2.15 -0.75)
		(size 0.5 0.5)
		(drill 0.3)
		(layers "*.Cu" "*.Mask")
		(remove_unused_layers no)
		(uuid "16786a8d-0377-4848-bb80-e21168dd3ece")
	)
	(pad "3" thru_hole roundrect
		(at 2.15 -0.75)
		(size 0.5 0.5)
		(drill 0.3)
		(layers "*.Cu" "*.Mask")
		(remove_unused_layers no)
		(roundrect_rratio 0.25)
		(uuid "1777d2d2-6c6f-45da-b38a-e2f5ff4d715a")
	)
	(pad "3" smd roundrect
		(at 2.635 -0.75)
		(size 1.67 0.82)
		(layers "F.Cu" "F.Paste" "F.Mask")
		(roundrect_rratio 0)
		(chamfer_ratio 0.4)
		(chamfer top_right)
		(uuid "f0b637dd-add6-490d-a78d-9826504d23bf")
	)
	(pad "4" thru_hole circle
		(at 2.15 0.75)
		(size 0.5 0.5)
		(drill 0.3)
		(layers "*.Cu" "*.Mask")
		(remove_unused_layers no)
		(uuid "e39db8c2-b117-4da1-aa7f-5d17f9e7afcb")
	)
	(pad "4" smd rect
		(at 2.635 0.75)
		(size 1.67 0.82)
		(layers "F.Cu" "F.Paste" "F.Mask")
		(uuid "d3e39971-0d05-4b2a-89b0-0a98c8c2eba2")
	)
	(model "/home/drFaustroll/playground/keyboard/m65/m65-pcb/packages3d/SK6812MINI-E v1.step"
		(offset
			(xyz 0 0 0)
		)
		(scale
			(xyz 1 1 1)
		)
		(rotate
			(xyz 90 0 0)
		)
	)
)