(footprint "SK6805_PLCC4_2.4x2.7mm_P1.3mm"
	(version 20240108)
	(generator "pcbnew")
	(generator_version "8.0")
	(layer "F.Cu")
	(descr "https://cdn-shop.adafruit.com/product-files/3484/3484_Datasheet.pdf")
	(tags "LED RGB NeoPixel Nano PLCC-4")
	(property "Reference" "REF**"
		(at 0 -2.2 0)
		(layer "F.SilkS")
		(uuid "b7c30994-357b-423f-9589-c6efd38fd3b3")
		(effects
			(font
				(size 1 1)
				(thickness 0.15)
			)
		)
	)
	(property "Value" "SK6805_PLCC4_2.4x2.7mm_P1.3mm"
		(at 0 2.7 0)
		(layer "F.Fab")
		(uuid "99b1208b-4959-4236-847b-937a4075b5e0")
		(effects
			(font
				(size 1 1)
				(thickness 0.15)
			)
		)
	)
	(property "Footprint" ""
		(at 0 0 0)
		(unlocked yes)
		(layer "F.Fab")
		(hide yes)
		(uuid "26c76510-e5d0-43e7-89f6-f3a5d5128fa2")
		(effects
			(font
				(size 1.27 1.27)
			)
		)
	)
	(property "Datasheet" ""
		(at 0 0 0)
		(unlocked yes)
		(layer "F.Fab")
		(hide yes)
		(uuid "711d7f01-49f6-40c4-b4c5-e6028ec019db")
		(effects
			(font
				(size 1.27 1.27)
			)
		)
	)
	(property "Description" ""
		(at 0 0 0)
		(unlocked yes)
		(layer "F.Fab")
		(hide yes)
		(uuid "4a4d4da1-c726-4811-b20b-7c783d1405ba")
		(effects
			(font
				(size 1.27 1.27)
			)
		)
	)
	(attr through_hole)
	(fp_line
		(start -1.9 -1.4)
		(end 1.9 -1.4)
		(stroke
			(width 0.12)
			(type solid)
		)
		(layer "F.SilkS")
		(uuid "4f99ce74-816f-4269-9115-1a228e256563")
	)
	(fp_line
		(start -1.9 1.4)
		(end -1.9 0.65)
		(stroke
			(width 0.12)
			(type solid)
		)
		(layer "F.SilkS")
		(uuid "f62b0f29-865d-4f13-808c-9f616a726965")
	)
	(fp_line
		(start -1.9 1.4)
		(end 1.9 1.4)
		(stroke
			(width 0.12)
			(type solid)
		)
		(layer "F.SilkS")
		(uuid "1528d4c4-c8d2-44dd-b5a1-75945f2deed3")
	)
	(fp_circle
		(center -2.35 -1.2)
		(end -2.199667 -1.2)
		(stroke
			(width 0.1)
			(type solid)
		)
		(fill solid)
		(layer "F.SilkS")
		(uuid "e7094cfb-4a27-4e24-be36-0ea105fdd85f")
	)
	(fp_line
		(start -2 -1.45)
		(end -2 1.45)
		(stroke
			(width 0.05)
			(type solid)
		)
		(layer "F.CrtYd")
		(uuid "92a450cd-8b7a-4012-857c-1e05e4829779")
	)
	(fp_line
		(start -2 1.45)
		(end 2 1.45)
		(stroke
			(width 0.05)
			(type solid)
		)
		(layer "F.CrtYd")
		(uuid "85bbf6d0-5ee3-4f39-89b1-3e110bdeda24")
	)
	(fp_line
		(start 2 -1.45)
		(end -2 -1.45)
		(stroke
			(width 0.05)
			(type solid)
		)
		(layer "F.CrtYd")
		(uuid "554c0711-8427-4d2d-9333-0139f197b78a")
	)
	(fp_line
		(start 2 1.45)
		(end 2 -1.45)
		(stroke
			(width 0.05)
			(type solid)
		)
		(layer "F.CrtYd")
		(uuid "95d1f3a4-d351-4292-b903-5d67ddd0cb49")
	)
	(fp_line
		(start -1.35 -1.2)
		(end -1.35 1.2)
		(stroke
			(width 0.1)
			(type solid)
		)
		(layer "F.Fab")
		(uuid "367d38e4-9430-4e93-bde7-df920ab0285c")
	)
	(fp_line
		(start -1.35 0.6)
		(end -0.75 1.2)
		(stroke
			(width 0.1)
			(type solid)
		)
		(layer "F.Fab")
		(uuid "902966c8-2e77-4474-be55-f4ae6d64c9b0")
	)
	(fp_line
		(start -1.35 1.2)
		(end 1.35 1.2)
		(stroke
			(width 0.1)
			(type solid)
		)
		(layer "F.Fab")
		(uuid "8dce0463-5dde-4210-b161-ee63ea35ccd8")
	)
	(fp_line
		(start 1.35 -1.2)
		(end -1.35 -1.2)
		(stroke
			(width 0.1)
			(type solid)
		)
		(layer "F.Fab")
		(uuid "f5c2fe9b-8159-4d87-ba70-dcd2a0aa4f03")
	)
	(fp_line
		(start 1.35 1.2)
		(end 1.35 -1.2)
		(stroke
			(width 0.1)
			(type solid)
		)
		(layer "F.Fab")
		(uuid "5e42d0b1-905d-49df-a549-38a26e4ffc99")
	)
	(fp_circle
		(center 0 0)
		(end 0 -1)
		(stroke
			(width 0.1)
			(type solid)
		)
		(fill none)
		(layer "F.Fab")
		(uuid "9aed70b4-e8e5-4f79-a9cf-54ee99bdcdfd")
	)
	(fp_text user "${REFERENCE}"
		(at 0 0 0)
		(layer "F.Fab")
		(uuid "5ad0f9e8-12ea-4a2a-b72f-cadd79b2106e")
		(effects
			(font
				(size 0.4 0.4)
				(thickness 0.08)
			)
		)
	)
	(pad "1" smd rect
		(at -1.5 -0.65)
		(size 2 0.6)
		(layers "F.Cu" "F.Paste" "F.Mask")
		(uuid "fd36020b-8134-4f27-a888-dc26800a103f")
	)
	(pad "1" thru_hole circle
		(at -0.8 -0.65)
		(size 0.5 0.5)
		(drill 0.3)
		(layers "*.Cu" "*.Mask")
		(remove_unused_layers no)
		(uuid "b923319d-48ff-4925-9298-67d92541e628")
	)
	(pad "2" smd rect
		(at -1.5 0.65)
		(size 2 0.6)
		(layers "F.Cu" "F.Paste" "F.Mask")
		(uuid "64a1c7a6-b22b-42d1-a997-2f2752df2f75")
	)
	(pad "2" thru_hole circle
		(at -0.8 0.65)
		(size 0.5 0.5)
		(drill 0.3)
		(layers "*.Cu" "*.Mask")
		(remove_unused_layers no)
		(uuid "817bc067-9bfe-49e8-988c-f0faec10ea4f")
	)
	(pad "3" thru_hole circle
		(at 0.8 0.65)
		(size 0.5 0.5)
		(drill 0.3)
		(layers "*.Cu" "*.Mask")
		(remove_unused_layers no)
		(uuid "a915ca19-cccf-47c9-8235-2f4e19a2d1bd")
	)
	(pad "3" smd rect
		(at 1.5 0.65)
		(size 2 0.6)
		(layers "F.Cu" "F.Paste" "F.Mask")
		(uuid "4fb24193-835c-4e30-8481-0688afa9fab5")
	)
	(pad "4" thru_hole circle
		(at 0.8 -0.65)
		(size 0.5 0.5)
		(drill 0.3)
		(layers "*.Cu" "*.Mask")
		(remove_unused_layers no)
		(uuid "29786e19-eda0-467d-9710-c098a09d845e")
	)
	(pad "4" smd rect
		(at 1.5 -0.65)
		(size 2 0.6)
		(layers "F.Cu" "F.Paste" "F.Mask")
		(uuid "0ca234e2-17f7-41b0-bdc8-8e2afae7919f")
	)
	(model "${KIPRJMOD}/packages3d/SK6805-2.4x2.7.step"
		(offset
			(xyz 0 0 0)
		)
		(scale
			(xyz 1 1 1)
		)
		(rotate
			(xyz 0 0 0)
		)
	)
	(model "/home/drFaustroll/playground/keyboard/m65/m65-pcb/packages3d/SK6805-2.4x2.7.step"
		(offset
			(xyz 0 0 0)
		)
		(scale
			(xyz 1 1 1)
		)
		(rotate
			(xyz 0 0 0)
		)
	)
)