(footprint "socket2.54" (version 20211014) (generator pcbnew)
  (layer "F.Cu")
  (tedit 5A19A420)
  (descr "Through hole straight socket strip, 1x08, 2.54mm pitch, single row (from Kicad 4.0.7), script generated")
  (tags "Through hole socket strip THT 1x08 2.54mm single row")
  (property "Sheetfile" "adapter.kicad_sch")
  (property "Sheetname" "")
  (attr through_hole)
  (fp_text reference "J3" (at 0 -2.77 180) (layer "F.SilkS")
    (effects (font (size 1 1) (thickness 0.15)))
    (tstamp 4b01fcea-aa71-411c-a9c5-b691f18b3712)
  )
  (fp_text value "Conn_01x08_Female" (at 0 20.55 180) (layer "F.Fab")
    (effects (font (size 1 1) (thickness 0.15)))
    (tstamp 75651154-61e5-4edd-957c-c8aeba878534)
  )
  (fp_text user "${REFERENCE}" (at 0 8.89 90) (layer "F.Fab")
    (effects (font (size 1 1) (thickness 0.15)))
    (tstamp 28cf71c0-f1cc-44e8-ad1d-c2c1d5a6e0ca)
  )
  (fp_line (start -1.33 1.27) (end -1.33 19.11) (layer "F.SilkS") (width 0.12) (tstamp 002f41f8-d536-4388-b527-b0d05da85c41))
  (fp_line (start -1.33 1.27) (end 1.33 1.27) (layer "F.SilkS") (width 0.12) (tstamp 6fbbd5fb-09cb-49c0-87a2-5700e3d2b1f4))
  (fp_line (start -1.33 19.11) (end 1.33 19.11) (layer "F.SilkS") (width 0.12) (tstamp 970b78f0-225f-4ad0-aa24-01355b71f4b5))
  (fp_line (start 0 -1.33) (end 1.33 -1.33) (layer "F.SilkS") (width 0.12) (tstamp a5202563-223e-4129-9638-300260f982db))
  (fp_line (start 1.33 1.27) (end 1.33 19.11) (layer "F.SilkS") (width 0.12) (tstamp afc1fb09-323b-4ba5-a4af-274e87a3ac93))
  (fp_line (start 1.33 -1.33) (end 1.33 0) (layer "F.SilkS") (width 0.12) (tstamp c51fd9c4-a8d1-493c-9a00-f517e244c717))
  (fp_line (start 1.75 19.55) (end -1.8 19.55) (layer "F.CrtYd") (width 0.05) (tstamp 2fbb72c9-acb6-4453-9da8-20f653078d62))
  (fp_line (start -1.8 -1.8) (end 1.75 -1.8) (layer "F.CrtYd") (width 0.05) (tstamp 8408011b-00a4-4b83-9ba9-40df56ef7a88))
  (fp_line (start 1.75 -1.8) (end 1.75 19.55) (layer "F.CrtYd") (width 0.05) (tstamp 8dafecc4-ff90-46de-8f78-763312be1904))
  (fp_line (start -1.8 19.55) (end -1.8 -1.8) (layer "F.CrtYd") (width 0.05) (tstamp d16bc5be-7a35-4404-9d27-60d50fdacfab))
  (fp_line (start -1.27 -1.27) (end 0.635 -1.27) (layer "F.Fab") (width 0.1) (tstamp 44464599-9668-415b-84a1-33ca0b799904))
  (fp_line (start 1.27 -0.635) (end 1.27 19.05) (layer "F.Fab") (width 0.1) (tstamp 48e3c8b1-5580-47f6-b60c-e14a306c71b9))
  (fp_line (start -1.27 19.05) (end -1.27 -1.27) (layer "F.Fab") (width 0.1) (tstamp 7bc4089e-9474-4c88-a3fb-c62ea7aec111))
  (fp_line (start 0.635 -1.27) (end 1.27 -0.635) (layer "F.Fab") (width 0.1) (tstamp 96eab296-1567-4273-ac9a-8174ef188a1f))
  (fp_line (start 1.27 19.05) (end -1.27 19.05) (layer "F.Fab") (width 0.1) (tstamp 97cf17e7-e511-4788-8e87-eb33f9f98591))
  (pad "1" thru_hole circle (at 0 0) (size 1.7 1.7) (drill 1) (layers *.Cu *.Mask) (tstamp 4a9b3805-b91b-41a4-a4dc-cb240c336ca6))
  (pad "2" thru_hole oval (at 0 2.54) (size 1.7 1.7) (drill 1) (layers *.Cu *.Mask) (tstamp fb23dbb2-0830-46fe-bd95-ded7ba3e23ca))
  (pad "3" thru_hole oval (at 0 5.08) (size 1.7 1.7) (drill 1) (layers *.Cu *.Mask) (tstamp 54542855-bafd-4552-8261-5633240c289f))
  (pad "4" thru_hole oval (at 0 7.62) (size 1.7 1.7) (drill 1) (layers *.Cu *.Mask) (tstamp 609e024e-334f-4fc1-a3f0-de49bc0f02dd))
  (pad "5" thru_hole oval (at 0 10.16) (size 1.7 1.7) (drill 1) (layers *.Cu *.Mask) (tstamp 8891c51b-feda-4489-96e7-ee628d8d3db2))
  (pad "6" thru_hole oval (at 0 12.7) (size 1.7 1.7) (drill 1) (layers *.Cu *.Mask) (tstamp b0c25899-8cd6-4b5e-a95a-45d6dab51dc1))
  (pad "7" thru_hole oval (at 0 15.24) (size 1.7 1.7) (drill 1) (layers *.Cu *.Mask) (tstamp fed254ec-9100-4e13-aee8-fad570904517))
  (pad "8" thru_hole oval (at 0 17.78) (size 1.7 1.7) (drill 1) (layers *.Cu *.Mask) (tstamp 3e4eb9e0-b620-4407-8e32-36acd9168351))
  (model "${KICAD6_3DMODEL_DIR}/Connector_PinSocket_2.54mm.3dshapes/PinSocket_1x08_P2.54mm_Vertical.wrl"
    (offset (xyz 0 0 0))
    (scale (xyz 1 1 1))
    (rotate (xyz 0 0 0))
  )
)
