(footprint "SOT-23-hand" (version 20221018) (generator pcbnew)
  (layer "F.Cu")
  (descr "SOT, 3 Pin (https://www.jedec.org/system/files/docs/to-236h.pdf variant AB), generated with kicad-footprint-generator ipc_gullwing_generator.py")
  (tags "SOT TO_SOT_SMD")
  (property "LCSC" "C8545")
  (property "Sheetfile" "m4x2.kicad_sch")
  (property "Sheetname" "")
  (attr smd)
  (fp_text reference "Q1" (at 3.02 -0.01) (layer "F.SilkS")
      (effects (font (size 1 1) (thickness 0.1)))
    (tstamp d1f8130c-8dc6-418f-936c-30c526ec4f3e)
  )
  (fp_text value "2N7002" (at 0 2.4) (layer "F.Fab")
      (effects (font (size 1 1) (thickness 0.15)))
    (tstamp 36f29881-55ad-4654-8818-b355b31ab5ce)
  )
  (fp_text user "${REFERENCE}" (at 0 0) (layer "F.Fab")
      (effects (font (size 0.32 0.32) (thickness 0.05)))
    (tstamp f748063b-2846-4df5-aa77-c67ad4908801)
  )
  (fp_line (start 0 -1.56) (end -1.675 -1.56)
    (stroke (width 0.12) (type solid)) (layer "F.SilkS") (tstamp fca94cd9-d348-4522-b64e-68d6104055e1))
  (fp_line (start 0 -1.56) (end 0.65 -1.56)
    (stroke (width 0.12) (type solid)) (layer "F.SilkS") (tstamp f68c3e53-5a4b-438d-9969-cb7f72da46d7))
  (fp_line (start 0 1.56) (end -0.65 1.56)
    (stroke (width 0.12) (type solid)) (layer "F.SilkS") (tstamp 3e95aea2-8c80-4171-b1fa-58e1ea849dae))
  (fp_line (start 0 1.56) (end 0.65 1.56)
    (stroke (width 0.12) (type solid)) (layer "F.SilkS") (tstamp c3ec821c-a4da-44f1-a6de-fb378d781baf))
  (fp_circle (center -2.3 -0.95) (end -2.15 -0.95)
    (stroke (width 0.1) (type solid)) (fill solid) (layer "F.SilkS") (tstamp 594380f2-bd37-4116-81e5-c016112458fc))
  (fp_line (start -1.92 -1.7) (end -1.92 1.7)
    (stroke (width 0.05) (type solid)) (layer "F.CrtYd") (tstamp a70a592b-d3b2-4802-8034-389f1920c2f3))
  (fp_line (start -1.92 1.7) (end 1.92 1.7)
    (stroke (width 0.05) (type solid)) (layer "F.CrtYd") (tstamp da76b133-5f27-4935-ac7f-1b3724bcd015))
  (fp_line (start 1.92 -1.7) (end -1.92 -1.7)
    (stroke (width 0.05) (type solid)) (layer "F.CrtYd") (tstamp 86ac44d8-7582-4618-8a1e-f566bfd3f2a0))
  (fp_line (start 1.92 1.7) (end 1.92 -1.7)
    (stroke (width 0.05) (type solid)) (layer "F.CrtYd") (tstamp 4d1b9d7f-1fb2-400b-8079-a2361dbaf631))
  (fp_line (start -0.65 -1.125) (end -0.325 -1.45)
    (stroke (width 0.1) (type solid)) (layer "F.Fab") (tstamp d3a46332-fe28-41af-a2f9-0bb317be4fba))
  (fp_line (start -0.65 1.45) (end -0.65 -1.125)
    (stroke (width 0.1) (type solid)) (layer "F.Fab") (tstamp 02da9dad-0270-43ba-868e-d963e02a7e71))
  (fp_line (start -0.325 -1.45) (end 0.65 -1.45)
    (stroke (width 0.1) (type solid)) (layer "F.Fab") (tstamp e4750223-d27e-4c92-a365-0a0c69722c47))
  (fp_line (start 0.65 -1.45) (end 0.65 1.45)
    (stroke (width 0.1) (type solid)) (layer "F.Fab") (tstamp 81da703c-6cb0-4dcd-9d34-63c179f37f2b))
  (fp_line (start 0.65 1.45) (end -0.65 1.45)
    (stroke (width 0.1) (type solid)) (layer "F.Fab") (tstamp 8488600c-88bd-4cca-996c-dbc2156d320c))
  (pad "1" smd roundrect (at -0.9375 -0.95) (size 1.6 0.8) (layers "F.Cu" "F.Paste" "F.Mask") (roundrect_rratio 0.25) (tstamp 90a4f0c7-db55-47d4-9fa2-74e91f947e5a))
  (pad "2" smd roundrect (at -0.9375 0.95) (size 1.6 0.8) (layers "F.Cu" "F.Paste" "F.Mask") (roundrect_rratio 0.25) (tstamp 7453aa49-a7e4-459c-a145-a3c3981ff5fa))
  (pad "3" smd roundrect (at 0.9375 0) (size 1.6 0.8) (layers "F.Cu" "F.Paste" "F.Mask") (roundrect_rratio 0.25) (tstamp ddcbedea-a9b2-472a-b339-daab8859af13))
  (model "${KICAD6_3DMODEL_DIR}/Package_TO_SOT_SMD.3dshapes/SOT-23.wrl"
    (offset (xyz 0 0 0))
    (scale (xyz 1 1 1))
    (rotate (xyz 0 0 0))
  )
)
