(footprint "SOT-23-6-reg" (version 20221018) (generator pcbnew)
  (layer "F.Cu")
  (descr "SOT, 6 Pin (https://www.jedec.org/sites/default/files/docs/Mo-178c.PDF variant AB), generated with kicad-footprint-generator ipc_gullwing_generator.py")
  (tags "SOT TO_SOT_SMD")
  (property "LCSC" "C55266")
  (property "Sheetfile" "m65.kicad_sch")
  (property "Sheetname" "")
  (attr smd)
  (fp_text reference "U3" (at 0 -2.4) (layer "F.SilkS")
      (effects (font (size 1 1) (thickness 0.15)))
    (tstamp d94a74ee-e83b-4868-ae3e-694a57417626)
  )
  (fp_text value "TPS2553DBVR" (at 0 2.4) (layer "F.Fab")
      (effects (font (size 1 1) (thickness 0.15)))
    (tstamp d47d93c1-3986-4d9d-bcec-655e9ab86b8e)
  )
  (fp_text user "${REFERENCE}" (at 0 0) (layer "F.Fab")
      (effects (font (size 0.4 0.4) (thickness 0.06)))
    (tstamp 10a658d6-d08e-412f-9899-b60ac4778726)
  )
  (fp_line (start 0 -1.56) (end -1.8 -1.56)
    (stroke (width 0.12) (type solid)) (layer "F.SilkS") (tstamp 618c0955-b8fc-40b1-b9e5-614dc0e18252))
  (fp_line (start 0 -1.56) (end 0.8 -1.56)
    (stroke (width 0.12) (type solid)) (layer "F.SilkS") (tstamp a86fdf80-ee15-47cc-9c49-b9f741177e48))
  (fp_line (start 0 1.56) (end -0.8 1.56)
    (stroke (width 0.12) (type solid)) (layer "F.SilkS") (tstamp 91f12507-78ab-49f6-8625-e8ac2bca9739))
  (fp_line (start 0 1.56) (end 0.8 1.56)
    (stroke (width 0.12) (type solid)) (layer "F.SilkS") (tstamp 384c0cfa-59ee-4426-ba34-4ae900280b9d))
  (fp_circle (center -1.51 -2.03) (end -1.31 -2.03)
    (stroke (width 0.1) (type solid)) (fill solid) (layer "F.SilkS") (tstamp e8503c60-0321-4b5d-af3a-cd4cf9d60396))
  (fp_line (start -2.05 -1.7) (end -2.05 1.7)
    (stroke (width 0.05) (type solid)) (layer "F.CrtYd") (tstamp c6ba117e-8022-4e5f-8909-b1e083f1e9f4))
  (fp_line (start -2.05 1.7) (end 2.05 1.7)
    (stroke (width 0.05) (type solid)) (layer "F.CrtYd") (tstamp 0fa812d1-149b-4702-9ac0-37c45b3abc50))
  (fp_line (start 2.05 -1.7) (end -2.05 -1.7)
    (stroke (width 0.05) (type solid)) (layer "F.CrtYd") (tstamp 35774b13-79e7-4d4b-9721-aa3f30f8620a))
  (fp_line (start 2.05 1.7) (end 2.05 -1.7)
    (stroke (width 0.05) (type solid)) (layer "F.CrtYd") (tstamp 5ae3b0cb-8ceb-4c36-a22e-25d73b49094b))
  (fp_line (start -0.8 -1.05) (end -0.4 -1.45)
    (stroke (width 0.1) (type solid)) (layer "F.Fab") (tstamp 7bcecae0-7d62-45ec-a771-0eaeced0d75d))
  (fp_line (start -0.8 1.45) (end -0.8 -1.05)
    (stroke (width 0.1) (type solid)) (layer "F.Fab") (tstamp 2d63b70b-e96e-466d-b4a1-228365cea9af))
  (fp_line (start -0.4 -1.45) (end 0.8 -1.45)
    (stroke (width 0.1) (type solid)) (layer "F.Fab") (tstamp 4a4f90b6-feeb-423b-9855-23c160bd1a6c))
  (fp_line (start 0.8 -1.45) (end 0.8 1.45)
    (stroke (width 0.1) (type solid)) (layer "F.Fab") (tstamp 9c5fc4fd-fc50-4cee-9b38-31e745eae93b))
  (fp_line (start 0.8 1.45) (end -0.8 1.45)
    (stroke (width 0.1) (type solid)) (layer "F.Fab") (tstamp c4d5401c-8704-4754-8841-df0ee5575ada))
  (pad "1" smd roundrect (at -1.1375 -0.95) (size 1.825 0.6) (layers "F.Cu" "F.Paste" "F.Mask") (roundrect_rratio 0.25) (tstamp 09e9db23-8baa-4093-b8a1-51d59802785d))
  (pad "2" smd roundrect (at -1.1375 0) (size 1.825 0.6) (layers "F.Cu" "F.Paste" "F.Mask") (roundrect_rratio 0.25) (tstamp f68c5367-0962-4004-a646-c20a521e665c))
  (pad "3" thru_hole circle (at -2.07 0.95) (size 0.5 0.5) (drill 0.3) (layers "*.Cu" "*.Mask") (tstamp 6d0d3a67-db3d-47e7-9da2-f169cf230fd9))
  (pad "3" smd roundrect (at -1.1375 0.95) (size 1.825 0.6) (layers "F.Cu" "F.Paste" "F.Mask") (roundrect_rratio 0.25) (tstamp 3d5488bb-fee9-45a8-a0aa-cf061221cf61))
  (pad "4" smd roundrect (at 1.1375 0.95) (size 1.825 0.6) (layers "F.Cu" "F.Paste" "F.Mask") (roundrect_rratio 0.25) (tstamp 24158a79-66e3-4099-9fc4-6d1ae7261511))
  (pad "4" thru_hole circle (at 2.05 0.95) (size 0.5 0.5) (drill 0.3) (layers "*.Cu" "*.Mask") (tstamp 97aade23-64fd-44c4-8739-e8058f59bdaa))
  (pad "5" smd roundrect (at 1.1375 0) (size 1.825 0.6) (layers "F.Cu" "F.Paste" "F.Mask") (roundrect_rratio 0.25) (tstamp f7690833-b848-48e3-aaf4-c8707cdcf54c))
  (pad "6" smd roundrect (at 1.1375 -0.95) (size 1.825 0.6) (layers "F.Cu" "F.Paste" "F.Mask") (roundrect_rratio 0.25) (tstamp 0a26cc6c-cbb6-484e-9622-6d6b7b3ec9f2))
  (model "${KICAD6_3DMODEL_DIR}/Package_TO_SOT_SMD.3dshapes/SOT-23-6.wrl"
    (offset (xyz 0 0 0))
    (scale (xyz 1 1 1))
    (rotate (xyz 0 0 0))
  )
)
