(footprint "ssd-1680-v2" (version 20221018) (generator pcbnew)
  (layer "F.Cu")
  (descr "Through hole straight pin header, 2x04, 2.54mm pitch, double rows")
  (tags "Through hole pin header THT 2x04 2.54mm double row")
  (attr through_hole)
  (fp_text reference "REF**" (at 0.53 -6.09) (layer "F.SilkS")
      (effects (font (size 0.5 0.5) (thickness 0.1)))
    (tstamp 42e7840b-864f-4ea8-82fb-5a64831b6ae6)
  )
  (fp_text value "ssd-1680-v2" (at 0 6.14) (layer "F.Fab") hide
      (effects (font (size 1 1) (thickness 0.15)))
    (tstamp 70ccfd2b-a615-4059-8bbd-18a21d099982)
  )
  (fp_text user "${REFERENCE}" (at 0.35 -6.05) (layer "B.SilkS")
      (effects (font (size 0.5 0.5) (thickness 0.1)) (justify mirror))
    (tstamp 6c5ca300-9516-4237-8265-97cb8f622287)
  )
  (fp_text user "busy" (at 4.03 -3.96 unlocked) (layer "F.SilkS")
      (effects (font (size 0.7 0.7) (thickness 0.125)))
    (tstamp 0b2377a8-6d7d-4e5a-b097-9d214bb7b094)
  )
  (fp_text user "cs" (at -3.54 -1.28 unlocked) (layer "F.SilkS")
      (effects (font (size 0.7 0.7) (thickness 0.125)))
    (tstamp 2a40ba61-0df9-4b01-913f-23a6e05fc6b7)
  )
  (fp_text user "clk" (at 3.67 1.11 unlocked) (layer "F.SilkS")
      (effects (font (size 0.7 0.7) (thickness 0.125)))
    (tstamp 2dddf8e5-133e-490a-9e9f-027716a0fc8f)
  )
  (fp_text user "mosi" (at -3.38 1.34 unlocked) (layer "F.SilkS")
      (effects (font (size 0.7 0.7) (thickness 0.125)))
    (tstamp 3abf27f8-716e-4751-bd7b-c0fe4446d1b8)
  )
  (fp_text user "rst" (at -3.41 -3.72 unlocked) (layer "F.SilkS")
      (effects (font (size 0.7 0.7) (thickness 0.125)))
    (tstamp 5c64b9fd-688c-4465-ac04-097274ee7396)
  )
  (fp_text user "vcc" (at -3.42 3.94 unlocked) (layer "F.SilkS")
      (effects (font (size 0.7 0.7) (thickness 0.125)))
    (tstamp 5cf1bdb4-abd2-4b6f-b486-61d89f96c4a7)
  )
  (fp_text user "d/c" (at 3.9 -1.41 unlocked) (layer "F.SilkS")
      (effects (font (size 0.7 0.7) (thickness 0.125)))
    (tstamp 712ae9d4-d695-4408-be58-05e222b6ebd4)
  )
  (fp_text user "${VALUE}" (at -5.86 1.06 270) (layer "F.SilkS")
      (effects (font (size 0.75 0.75) (thickness 0.15)))
    (tstamp 9be97e2c-e0c7-4cfd-a4d2-a77c74e28db9)
  )
  (fp_text user "gnd" (at 3.9 3.65 unlocked) (layer "F.SilkS")
      (effects (font (size 0.7 0.7) (thickness 0.125)))
    (tstamp fbb51138-7d0e-4e7c-81c8-1ff22efd063e)
  )
  (fp_line (start -2.4 -5.14) (end -2.4 5.14)
    (stroke (width 0.12) (type solid)) (layer "F.SilkS") (tstamp 4af67956-19ab-46b6-8c88-8ee9ae3159c0))
  (fp_line (start -2.4 -5.14) (end 2.8 -5.14)
    (stroke (width 0.12) (type solid)) (layer "F.SilkS") (tstamp d7f779a2-dc46-4fb4-a40e-fa799742f9cc))
  (fp_line (start -2.4 5.14) (end 2.8 5.14)
    (stroke (width 0.12) (type solid)) (layer "F.SilkS") (tstamp 43633b0e-978c-4ccb-b0df-dbfbe6084216))
  (fp_line (start 2.8 -5.14) (end 2.8 5.14)
    (stroke (width 0.12) (type solid)) (layer "F.SilkS") (tstamp 42d43141-91b5-4019-ae89-e6e915c6512e))
  (fp_line (start -68.6 -11.3) (end -68.6 -12.2)
    (stroke (width 0.12) (type solid)) (layer "Dwgs.User") (tstamp 1f051ce7-9a74-49d0-a72a-8a68a9563e80))
  (fp_line (start -68.6 -11.3) (end -67 -9.1)
    (stroke (width 0.12) (type solid)) (layer "Dwgs.User") (tstamp c527c785-f0d1-42b8-bf56-658e9acaa86d))
  (fp_line (start -68.6 11.3) (end -68.6 12.2)
    (stroke (width 0.12) (type solid)) (layer "Dwgs.User") (tstamp ff118583-9f12-4014-9577-45e9ba90827d))
  (fp_line (start -68.6 11.3) (end -67 9.1)
    (stroke (width 0.12) (type solid)) (layer "Dwgs.User") (tstamp 474dbe56-2831-424f-830a-76334d71c36e))
  (fp_line (start -67 9.1) (end -67 -9.1)
    (stroke (width 0.12) (type solid)) (layer "Dwgs.User") (tstamp cd54de50-8f68-401f-85de-dc72b98f18bb))
  (fp_line (start 0.6 -15) (end -65.8 -15)
    (stroke (width 0.12) (type solid)) (layer "Dwgs.User") (tstamp 1c7d47fb-fcf7-4c99-9ef8-2e6fa1c5a7ad))
  (fp_line (start 0.6 15) (end -65.8 15)
    (stroke (width 0.12) (type solid)) (layer "Dwgs.User") (tstamp 1cdc0ceb-666d-42ba-a70c-eb86a76634f1))
  (fp_line (start 3.4 -12.2) (end 3.4 12.2)
    (stroke (width 0.12) (type solid)) (layer "Dwgs.User") (tstamp de5a12c3-509b-4b86-b2ca-dbb281810db2))
  (fp_rect (start -3 -15) (end -62.2 15)
    (stroke (width 0.12) (type solid)) (fill none) (layer "Dwgs.User") (tstamp d65f2994-e443-4ba7-b7cd-9a4701c23db4))
  (fp_arc (start -68.6 -12.2) (mid -67.779899 -14.179899) (end -65.8 -15)
    (stroke (width 0.12) (type solid)) (layer "Dwgs.User") (tstamp 4305d30c-9d4c-4e51-b66d-87b74abe761e))
  (fp_arc (start -65.8 15) (mid -67.779899 14.179899) (end -68.6 12.2)
    (stroke (width 0.12) (type solid)) (layer "Dwgs.User") (tstamp 8ad70568-0cf2-48b2-96c8-3830e3f03908))
  (fp_arc (start 0.6 -15) (mid 2.579899 -14.179899) (end 3.4 -12.2)
    (stroke (width 0.12) (type solid)) (layer "Dwgs.User") (tstamp db01d638-a49f-4582-9f5e-c605acbe268d))
  (fp_arc (start 3.4 12.2) (mid 2.579899 14.179899) (end 0.6 15)
    (stroke (width 0.12) (type solid)) (layer "Dwgs.User") (tstamp 6fddbe30-15a2-45d3-be86-763c5ff04c49))
  (fp_circle (center -65.8 -12.2) (end -64.3 -12.2)
    (stroke (width 0.12) (type solid)) (fill none) (layer "Dwgs.User") (tstamp a60c5b9c-03b8-47bb-b5e6-c31c24944791))
  (fp_circle (center -65.8 -12.2) (end -63.2 -12.2)
    (stroke (width 0.12) (type solid)) (fill none) (layer "Dwgs.User") (tstamp f22447ae-824a-41eb-8f4a-62baab600213))
  (fp_circle (center -65.8 12.2) (end -64.3 12.2)
    (stroke (width 0.12) (type solid)) (fill none) (layer "Dwgs.User") (tstamp c435c9b4-1618-4d2c-aed2-35537ebb5b94))
  (fp_circle (center -65.8 12.2) (end -63.2 12.2)
    (stroke (width 0.12) (type solid)) (fill none) (layer "Dwgs.User") (tstamp 25931eb8-416f-49b9-8bfc-64a51b28a59d))
  (fp_circle (center 0.6 -12.2) (end 2.1 -12.2)
    (stroke (width 0.12) (type solid)) (fill none) (layer "Dwgs.User") (tstamp 7c165413-ccdd-4a3e-8b99-904e003e68ab))
  (fp_circle (center 0.6 -12.2) (end 3.2 -12.2)
    (stroke (width 0.12) (type solid)) (fill none) (layer "Dwgs.User") (tstamp 3ef43dcf-5523-46e4-b3c3-07a4c56a7ced))
  (fp_circle (center 0.6 12.2) (end 2.1 12.2)
    (stroke (width 0.12) (type solid)) (fill none) (layer "Dwgs.User") (tstamp 9c8804dc-0582-4119-a0d2-df900c155284))
  (fp_circle (center 0.6 12.2) (end 3.2 12.2)
    (stroke (width 0.12) (type solid)) (fill none) (layer "Dwgs.User") (tstamp e166124c-cb3a-427a-bce7-62fcb9cdd1d0))
  (fp_line (start -2.87 -5.61) (end -2.87 5.59)
    (stroke (width 0.05) (type solid)) (layer "F.CrtYd") (tstamp 56aa5cb5-b7c6-4a07-95f9-846f348b87b1))
  (fp_line (start -2.87 5.59) (end 3.28 5.59)
    (stroke (width 0.05) (type solid)) (layer "F.CrtYd") (tstamp f7f16198-145d-4514-a8c9-ddac17952bd7))
  (fp_line (start 3.28 -5.61) (end -2.87 -5.61)
    (stroke (width 0.05) (type solid)) (layer "F.CrtYd") (tstamp 8652aa8b-5170-49a1-92d9-bcdaadc7ce7b))
  (fp_line (start 3.28 5.59) (end 3.28 -5.61)
    (stroke (width 0.05) (type solid)) (layer "F.CrtYd") (tstamp 28da5b28-0cf4-4f00-b807-aeae4d30cc62))
  (fp_line (start -2.34 -5.08) (end 2.74 -5.08)
    (stroke (width 0.1) (type solid)) (layer "F.Fab") (tstamp 87017ea4-bba2-4943-b45d-218a29bb1042))
  (fp_line (start -2.34 5.08) (end -2.34 -5.08)
    (stroke (width 0.1) (type solid)) (layer "F.Fab") (tstamp 21b83383-eb11-40c6-84a7-99de2e383850))
  (fp_line (start 2.74 -5.08) (end 2.74 5.08)
    (stroke (width 0.1) (type solid)) (layer "F.Fab") (tstamp d8d87904-89da-4a33-93e1-62cdbd1936d2))
  (fp_line (start 2.74 5.08) (end -2.34 5.08)
    (stroke (width 0.1) (type solid)) (layer "F.Fab") (tstamp 009819da-1180-47d1-a58c-d279913cc3ab))
  (pad "" np_thru_hole circle (at 0.6 -12.2) (size 3 3) (drill 3) (layers "F&B.Cu" "*.Mask") (tstamp 358d6253-e0d7-4e7a-9d68-b6d4b3a2be51))
  (pad "" np_thru_hole circle (at 0.6 12.2) (size 3 3) (drill 3) (layers "F&B.Cu" "*.Mask") (tstamp 7e2b4350-d222-4e38-9e7f-050f00b9bb12))
  (pad "1" thru_hole oval (at 1.47 -3.81) (size 1.7 1.7) (drill 1) (layers "*.Cu" "*.Mask") (tstamp 0865acc0-2864-48f5-ab52-2f68b4fa25b4))
  (pad "2" thru_hole oval (at -1.07 -3.81) (size 1.7 1.7) (drill 1) (layers "*.Cu" "*.Mask") (tstamp 412065f0-c89f-441f-9d84-7d8569952e00))
  (pad "3" thru_hole oval (at 1.47 -1.27) (size 1.7 1.7) (drill 1) (layers "*.Cu" "*.Mask") (tstamp 41d0f951-c607-401d-8300-5507973deeef))
  (pad "4" thru_hole oval (at -1.07 -1.27) (size 1.7 1.7) (drill 1) (layers "*.Cu" "*.Mask") (tstamp 39885be0-fb0d-4c97-95db-4137616ea43a))
  (pad "5" thru_hole oval (at 1.47 1.27) (size 1.7 1.7) (drill 1) (layers "*.Cu" "*.Mask") (tstamp 8c49e21c-a5dc-4455-8b81-cd48e2a7f8ca))
  (pad "6" thru_hole oval (at -1.07 1.27) (size 1.7 1.7) (drill 1) (layers "*.Cu" "*.Mask") (tstamp d90f6a08-8136-4bc4-9458-2779b6abc55a))
  (pad "7" thru_hole roundrect (at 1.47 3.81) (size 1.7 1.7) (drill 1) (layers "*.Cu" "*.Mask") (roundrect_rratio 0.25) (tstamp 879daf47-7198-4533-8d94-a45832425828))
  (pad "8" thru_hole oval (at -1.07 3.81) (size 1.7 1.7) (drill 1) (layers "*.Cu" "*.Mask") (tstamp 921b125d-b9f3-44f9-b642-92721ac1c466))
  (model "${KICAD6_3DMODEL_DIR}/Connector_PinSocket_2.54mm.3dshapes/PinSocket_2x04_P2.54mm_Vertical.wrl"
    (offset (xyz 1 4 0))
    (scale (xyz 1 1 1))
    (rotate (xyz 0 0 0))
  )
)
