(footprint "SW_Cherry_MX_1.50u_PCB_reversible" (version 20221018) (generator pcbnew)
  (layer "F.Cu")
  (descr "Cherry MX keyswitch, 1.50u, PCB mount, http://cherryamericas.com/wp-content/uploads/2014/12/mx_cat.pdf")
  (tags "Cherry MX keyswitch 1.50u PCB")
  (attr through_hole)
  (fp_text reference "REF**" (at 0 -7.874) (layer "F.SilkS")
      (effects (font (size 1 1) (thickness 0.15)))
    (tstamp af8a4dba-9855-44c4-97ef-ec4655c6f16d)
  )
  (fp_text value "SW_Cherry_MX_1.50u_PCB_reversible" (at 0 7.874) (layer "F.Fab")
      (effects (font (size 1 1) (thickness 0.15)))
    (tstamp 8ee37bb0-691d-4a67-a114-8a1ab6430206)
  )
  (fp_text user "${REFERENCE}" (at 0 -7.874) (layer "F.Fab")
      (effects (font (size 1 1) (thickness 0.15)))
    (tstamp b435e3f2-d918-4a1f-aee0-614bda3e4140)
  )
  (fp_line (start -6.985 -6.985) (end 6.985 -6.985)
    (stroke (width 0.12) (type solid)) (layer "F.SilkS") (tstamp 0dcaf1ec-961f-4ded-9faa-b6fe2f733602))
  (fp_line (start -6.985 6.985) (end -6.985 -6.985)
    (stroke (width 0.12) (type solid)) (layer "F.SilkS") (tstamp c54e3e05-4b50-419b-8c20-b95b88b96936))
  (fp_line (start 6.985 -6.985) (end 6.985 6.985)
    (stroke (width 0.12) (type solid)) (layer "F.SilkS") (tstamp d550f592-d009-45f9-9b05-1ba42456b26c))
  (fp_line (start 6.985 6.985) (end -6.985 6.985)
    (stroke (width 0.12) (type solid)) (layer "F.SilkS") (tstamp 1ac3f38e-f8b9-44a1-a77e-41e68b1fba71))
  (fp_line (start -14.2875 -9.525) (end 14.2875 -9.525)
    (stroke (width 0.15) (type solid)) (layer "Dwgs.User") (tstamp 8b8fef52-f161-4c9b-8c8a-4c27386ac642))
  (fp_line (start -14.2875 9.525) (end -14.2875 -9.525)
    (stroke (width 0.15) (type solid)) (layer "Dwgs.User") (tstamp d95f1e23-035e-4e85-b23c-07bf3c1775b7))
  (fp_line (start 14.2875 -9.525) (end 14.2875 9.525)
    (stroke (width 0.15) (type solid)) (layer "Dwgs.User") (tstamp f1329f27-fb8e-4559-8497-ab5ba01cf2b9))
  (fp_line (start 14.2875 9.525) (end -14.2875 9.525)
    (stroke (width 0.15) (type solid)) (layer "Dwgs.User") (tstamp 32d010b6-c93b-4672-8e76-5d39d6bd0805))
  (fp_line (start -6.6 -6.6) (end 6.6 -6.6)
    (stroke (width 0.05) (type solid)) (layer "F.CrtYd") (tstamp de64d3fd-747f-42ca-a4d9-a463833f449a))
  (fp_line (start -6.6 6.6) (end -6.6 -6.6)
    (stroke (width 0.05) (type solid)) (layer "F.CrtYd") (tstamp ed8e4ded-5f1f-4e3a-a370-c00708200408))
  (fp_line (start 6.6 -6.6) (end 6.6 6.6)
    (stroke (width 0.05) (type solid)) (layer "F.CrtYd") (tstamp bac92286-3895-46b3-be34-a18e98d2068b))
  (fp_line (start 6.6 6.6) (end -6.6 6.6)
    (stroke (width 0.05) (type solid)) (layer "F.CrtYd") (tstamp 72abff17-435e-46d6-bb55-422a42961cba))
  (fp_line (start -6.35 -6.35) (end 6.35 -6.35)
    (stroke (width 0.1) (type solid)) (layer "F.Fab") (tstamp e292274d-9120-47e0-acab-6f80474a8e6a))
  (fp_line (start -6.35 6.35) (end -6.35 -6.35)
    (stroke (width 0.1) (type solid)) (layer "F.Fab") (tstamp 481f39ad-7433-4f1e-a6a6-b6493375371d))
  (fp_line (start 6.35 -6.35) (end 6.35 6.35)
    (stroke (width 0.1) (type solid)) (layer "F.Fab") (tstamp 1a87f4dd-091f-472c-a552-1afa9f599d22))
  (fp_line (start 6.35 6.35) (end -6.35 6.35)
    (stroke (width 0.1) (type solid)) (layer "F.Fab") (tstamp f9a6b437-43cb-442c-9363-26ffc6c55364))
  (pad "" np_thru_hole circle (at -5.08 0) (size 1.7 1.7) (drill 1.7) (layers "*.Cu" "*.Mask") (tstamp bdf95e72-27a4-4454-a958-3620a53b1a5e))
  (pad "" np_thru_hole circle (at 0 0) (size 4 4) (drill 4) (layers "*.Cu" "*.Mask") (tstamp 1f5e0582-6e9b-489e-a357-8d62a842372a))
  (pad "" np_thru_hole circle (at 5.08 0) (size 1.7 1.7) (drill 1.7) (layers "*.Cu" "*.Mask") (tstamp 67c41640-a5e7-4fd7-a17b-9c7fc94c4026))
  (pad "1" thru_hole circle (at 2.54 -5.08) (size 2.2 2.2) (drill 1.5) (layers "*.Cu" "*.Mask") (tstamp 38693425-24e0-4b78-adff-b26e77b3b89f))
  (pad "1" thru_hole circle (at 3.81 -2.54) (size 2.2 2.2) (drill 1.5) (layers "*.Cu" "*.Mask") (tstamp 205e337b-8d96-4ec9-81d7-5a42b300869d))
  (pad "2" thru_hole circle (at -3.81 -2.54) (size 2.2 2.2) (drill 1.5) (layers "*.Cu" "*.Mask") (tstamp ad99d4a3-0792-418d-8afc-7300486bdc4f))
  (pad "2" thru_hole circle (at -2.54 -5.08) (size 2.2 2.2) (drill 1.5) (layers "*.Cu" "*.Mask") (tstamp 95ef8222-f363-490b-a2c1-2beeb4dfdf31))
  (model "${KICAD6_3DMODEL_DIR}/Button_Switch_Keyboard.3dshapes/SW_Cherry_MX_1.50u_PCB.wrl"
    (offset (xyz 0 0 0))
    (scale (xyz 1 1 1))
    (rotate (xyz 0 0 0))
  )
)
