(footprint "u-spi_sdcreen_pins-8p" (version 20221018) (generator pcbnew)
  (layer "F.Cu")
  (descr "JST PH series connector, S8B-PH-K (http://www.jst-mfg.com/product/pdf/eng/ePH.pdf), generated with kicad-footprint-generator")
  (tags "connector JST PH top entry")
  (property "Sheetfile" "ultimate-8x16.kicad_sch")
  (property "Sheetname" "")
  (property "ki_description" "Generic connector, single row, 01x08, script generated")
  (property "ki_keywords" "connector")
  (attr through_hole)
  (fp_text reference "J11" (at -3.59 2.38 90) (layer "F.SilkS")
      (effects (font (size 1 1) (thickness 0.15)))
    (tstamp 8db64cdc-587c-42ff-855f-528b437940ff)
  )
  (fp_text value "spi - screen" (at 7 7.45) (layer "F.Fab")
      (effects (font (size 1 1) (thickness 0.15)))
    (tstamp 10a0e096-d297-481d-b2f0-1b16640b38d5)
  )
  (fp_text user "cs" (at 5.75 -2.06 90 unlocked) (layer "B.SilkS")
      (effects (font (size 0.7 0.7) (thickness 0.1)) (justify left bottom mirror))
    (tstamp 0a3ad78c-b2a3-4190-8238-451082eb5421)
  )
  (fp_text user "clock" (at 7.71 -3.69 90 unlocked) (layer "B.SilkS")
      (effects (font (size 0.7 0.7) (thickness 0.1)) (justify left bottom mirror))
    (tstamp 20eb48f5-f793-4038-9509-228658670a47)
  )
  (fp_text user "gp3" (at 2.08 -0.8 -90 unlocked) (layer "B.SilkS")
      (effects (font (size 0.7 0.7) (thickness 0.1)) (justify left bottom mirror))
    (tstamp 3945594b-68fe-4882-b79d-f19aee60c55e)
  )
  (fp_text user "gp9" (at 0.14 -0.82 -90 unlocked) (layer "B.SilkS")
      (effects (font (size 0.7 0.7) (thickness 0.1)) (justify left bottom mirror))
    (tstamp 3eae7051-2ce1-4422-bf36-9a520fdb5925)
  )
  (fp_text user "gnd" (at 12.27 -2.823332 90 unlocked) (layer "B.SilkS")
      (effects (font (size 0.7 0.7) (thickness 0.1)) (justify left bottom mirror))
    (tstamp 44d37ae0-2fcb-46d9-98bc-bc95aaa8f5ee)
  )
  (fp_text user "rst" (at 1.83 -2.31 90 unlocked) (layer "B.SilkS")
      (effects (font (size 0.7 0.7) (thickness 0.1)) (justify left bottom mirror))
    (tstamp 4abf366a-d00b-43b7-9edc-5ec1911573dd)
  )
  (fp_text user "gp23" (at 10.05 -0.78 -90 unlocked) (layer "B.SilkS")
      (effects (font (size 0.7 0.7) (thickness 0.1)) (justify left bottom mirror))
    (tstamp 4bcfa0ad-10d1-4d32-8c2e-4d2515fbc9f4)
  )
  (fp_text user "${REFERENCE}" (at -3.59 2.38 -90) (layer "B.SilkS")
      (effects (font (size 1 1) (thickness 0.15)) (justify mirror))
    (tstamp 7ee215b9-b9bb-4d2a-8f93-55261f3250c0)
  )
  (fp_text user "gp5" (at 5.96 -0.81 -90 unlocked) (layer "B.SilkS")
      (effects (font (size 0.7 0.7) (thickness 0.1)) (justify left bottom mirror))
    (tstamp 82f28176-b083-4213-a06a-e7c65eed5472)
  )
  (fp_text user "gp22" (at 8.01 -0.83 -90 unlocked) (layer "B.SilkS")
      (effects (font (size 0.7 0.7) (thickness 0.1)) (justify left bottom mirror))
    (tstamp 9865be98-ec28-4a3f-af80-4319a21a20c7)
  )
  (fp_text user "gp8" (at 3.99 -0.79 -90 unlocked) (layer "B.SilkS")
      (effects (font (size 0.7 0.7) (thickness 0.1)) (justify left bottom mirror))
    (tstamp 98ba83f3-a97f-4a4b-ad49-b228a50bf0f1)
  )
  (fp_text user "mosi" (at 9.82 -3.36 90 unlocked) (layer "B.SilkS")
      (effects (font (size 0.7 0.7) (thickness 0.1)) (justify left bottom mirror))
    (tstamp afc35cbf-67e5-4bea-b318-2957cb5b3129)
  )
  (fp_text user "dc" (at 3.77 -2.16 90 unlocked) (layer "B.SilkS")
      (effects (font (size 0.7 0.7) (thickness 0.1)) (justify left bottom mirror))
    (tstamp b2a9e2b3-5dd5-4f5d-9ca2-61b5a5dfd858)
  )
  (fp_text user "vcc" (at 14.38 -2.656666 90 unlocked) (layer "B.SilkS")
      (effects (font (size 0.7 0.7) (thickness 0.1)) (justify left bottom mirror))
    (tstamp c25a9dd5-ba60-4b37-99f6-8550c1573656)
  )
  (fp_text user "busy" (at -0.34 -3.16 90 unlocked) (layer "B.SilkS")
      (effects (font (size 0.7 0.7) (thickness 0.1)) (justify left bottom mirror))
    (tstamp d5821d6b-6b80-4c80-9818-71977ce4fc07)
  )
  (fp_text user "gnd" (at 12.29 -0.71 90 unlocked) (layer "F.SilkS")
      (effects (font (size 0.7 0.7) (thickness 0.1)) (justify left bottom))
    (tstamp 0de8b3ca-2926-4ca2-9526-70057ace60a5)
  )
  (fp_text user "gp9" (at 0.72 -0.8 90 unlocked) (layer "F.SilkS")
      (effects (font (size 0.7 0.7) (thickness 0.1)) (justify left bottom))
    (tstamp 1851fedf-80b5-4ad0-a020-f3cc5f3f3d54)
  )
  (fp_text user "vcc" (at 14.4 -0.71 90 unlocked) (layer "F.SilkS")
      (effects (font (size 0.7 0.7) (thickness 0.1)) (justify left bottom))
    (tstamp 30418ab4-f09d-4d77-8d5d-fac7592535a9)
  )
  (fp_text user "gp23" (at 10.66 -0.8 90 unlocked) (layer "F.SilkS")
      (effects (font (size 0.7 0.7) (thickness 0.1)) (justify left bottom))
    (tstamp 39f2ffbf-61bc-4896-8191-19f1c3ca8a0d)
  )
  (fp_text user "dc" (at 3.77 -0.8 90 unlocked) (layer "F.SilkS")
      (effects (font (size 0.7 0.7) (thickness 0.1)) (justify left bottom))
    (tstamp 4448319c-3615-4f69-a22d-efe90dfa1d58)
  )
  (fp_text user "busy" (at -0.15 -0.8 90 unlocked) (layer "F.SilkS")
      (effects (font (size 0.7 0.7) (thickness 0.1)) (justify left bottom))
    (tstamp 60f430b4-4feb-459c-adc9-805952369a57)
  )
  (fp_text user "clock" (at 7.75 -0.8 90 unlocked) (layer "F.SilkS")
      (effects (font (size 0.7 0.7) (thickness 0.1)) (justify left bottom))
    (tstamp 7279252d-245b-4aa5-8811-63213d26d776)
  )
  (fp_text user "rst" (at 1.79 -0.8 90 unlocked) (layer "F.SilkS")
      (effects (font (size 0.7 0.7) (thickness 0.1)) (justify left bottom))
    (tstamp 89f6af46-c6b0-47a7-bd0c-b75d3f32ce2e)
  )
  (fp_text user "mosi" (at 9.78 -0.8 90 unlocked) (layer "F.SilkS")
      (effects (font (size 0.7 0.7) (thickness 0.1)) (justify left bottom))
    (tstamp b42a6c82-a8ca-4f14-91d4-4fdb44e2b4f0)
  )
  (fp_text user "gp3" (at 2.66 -0.8 90 unlocked) (layer "F.SilkS")
      (effects (font (size 0.7 0.7) (thickness 0.1)) (justify left bottom))
    (tstamp b68dc6c8-d342-4198-9beb-00aac0401459)
  )
  (fp_text user "gp22" (at 8.63 -0.8 90 unlocked) (layer "F.SilkS")
      (effects (font (size 0.7 0.7) (thickness 0.1)) (justify left bottom))
    (tstamp b9ebd282-dcf0-4f14-b007-22705afe7fe3)
  )
  (fp_text user "gp8" (at 4.52 -0.8 90 unlocked) (layer "F.SilkS")
      (effects (font (size 0.7 0.7) (thickness 0.1)) (justify left bottom))
    (tstamp dce6bd5f-223a-4176-a32e-db33d889bee5)
  )
  (fp_text user "cs" (at 5.78 -0.8 90 unlocked) (layer "F.SilkS")
      (effects (font (size 0.7 0.7) (thickness 0.1)) (justify left bottom))
    (tstamp f32129d7-ee37-4421-8e62-fa7bd5ac28ad)
  )
  (fp_text user "gp5" (at 6.51 -0.8 90 unlocked) (layer "F.SilkS")
      (effects (font (size 0.7 0.7) (thickness 0.1)) (justify left bottom))
    (tstamp f63fc06f-ae13-4214-b905-d2d8fe4c7645)
  )
  (fp_text user "${REFERENCE}" (at 6.74 3.68) (layer "F.Fab")
      (effects (font (size 1 1) (thickness 0.15)))
    (tstamp 4bdcf112-d83d-4a32-90d9-1359f1014c63)
  )
  (fp_line (start -2.06 -1.46) (end -2.06 6.36)
    (stroke (width 0.12) (type solid)) (layer "F.SilkS") (tstamp ab90c784-0d5d-4f91-ad1c-d98f36042145))
  (fp_line (start -2.06 0.14) (end -1.14 0.14)
    (stroke (width 0.12) (type solid)) (layer "F.SilkS") (tstamp 257f717b-0f25-4759-8e03-31f580d42875))
  (fp_line (start -2.06 6.36) (end 16.06 6.36)
    (stroke (width 0.12) (type solid)) (layer "F.SilkS") (tstamp f2965b84-8e75-4b6e-b930-3c7a4e432913))
  (fp_line (start -1.3 2.5) (end -1.3 4.1)
    (stroke (width 0.12) (type solid)) (layer "F.SilkS") (tstamp b40ced07-628b-4c62-ae9e-da2740bcb776))
  (fp_line (start -1.3 4.1) (end -0.3 4.1)
    (stroke (width 0.12) (type solid)) (layer "F.SilkS") (tstamp de6cb072-1a05-4ac7-aade-82fbc7369051))
  (fp_line (start -1.14 -1.46) (end -2.06 -1.46)
    (stroke (width 0.12) (type solid)) (layer "F.SilkS") (tstamp 1e3504cd-8791-48be-a7fa-57413fb467d0))
  (fp_line (start -1.14 0.14) (end -1.14 -1.46)
    (stroke (width 0.12) (type solid)) (layer "F.SilkS") (tstamp 74e1e040-d90a-4c34-9057-91a3b9578f1c))
  (fp_line (start -0.86 0.14) (end -1.14 0.14)
    (stroke (width 0.12) (type solid)) (layer "F.SilkS") (tstamp 4cb38fdf-d9e3-4adf-9bd5-48ae69694405))
  (fp_line (start -0.86 0.14) (end -0.86 -1.075)
    (stroke (width 0.12) (type solid)) (layer "F.SilkS") (tstamp 4356e618-0a9c-4286-9076-e371a6168179))
  (fp_line (start -0.8 4.1) (end -0.8 6.36)
    (stroke (width 0.12) (type solid)) (layer "F.SilkS") (tstamp 4de10671-c25e-43d2-9d6a-fa36339cb47f))
  (fp_line (start -0.3 2.5) (end -1.3 2.5)
    (stroke (width 0.12) (type solid)) (layer "F.SilkS") (tstamp f8af69a6-6629-4c7e-8170-33e60480cb33))
  (fp_line (start -0.3 4.1) (end -0.3 2.5)
    (stroke (width 0.12) (type solid)) (layer "F.SilkS") (tstamp 2c0f5f28-14ba-4a51-b262-afc0e4b7f9d3))
  (fp_line (start -0.3 4.1) (end -0.3 6.36)
    (stroke (width 0.12) (type solid)) (layer "F.SilkS") (tstamp 5eb58e92-788e-4fc1-b95f-0bbbc2244bee))
  (fp_line (start 0.5 2) (end 13.5 2)
    (stroke (width 0.12) (type solid)) (layer "F.SilkS") (tstamp 54fb1b7c-ff18-480f-802f-f29aa8eb33b7))
  (fp_line (start 0.5 6.36) (end 0.5 2)
    (stroke (width 0.12) (type solid)) (layer "F.SilkS") (tstamp 002d28e6-1ab7-4831-b751-02c9479d499b))
  (fp_line (start 13.5 2) (end 13.5 6.36)
    (stroke (width 0.12) (type solid)) (layer "F.SilkS") (tstamp 83aefa30-83ab-4680-9988-3f4543709cb0))
  (fp_line (start 14.3 2.5) (end 15.3 2.5)
    (stroke (width 0.12) (type solid)) (layer "F.SilkS") (tstamp 5ce90345-2fd0-42ee-98b1-a188d647514a))
  (fp_line (start 14.3 4.1) (end 14.3 2.5)
    (stroke (width 0.12) (type solid)) (layer "F.SilkS") (tstamp 738ff6a8-361a-4b70-a32a-88cc5b9e0da8))
  (fp_line (start 15.14 -1.46) (end 15.14 0.14)
    (stroke (width 0.12) (type solid)) (layer "F.SilkS") (tstamp d90a9a60-71b8-49fd-bad9-fe546969f2dd))
  (fp_line (start 15.14 0.14) (end 14.86 0.14)
    (stroke (width 0.12) (type solid)) (layer "F.SilkS") (tstamp 418182c2-a311-4631-8463-49dcbba4cfac))
  (fp_line (start 15.3 2.5) (end 15.3 4.1)
    (stroke (width 0.12) (type solid)) (layer "F.SilkS") (tstamp dcfe20be-d399-4b6c-8776-b21a199a3529))
  (fp_line (start 15.3 4.1) (end 14.3 4.1)
    (stroke (width 0.12) (type solid)) (layer "F.SilkS") (tstamp 1fd4cf3d-3956-404a-9032-59522049d3de))
  (fp_line (start 16.06 -1.46) (end 15.14 -1.46)
    (stroke (width 0.12) (type solid)) (layer "F.SilkS") (tstamp 5b6ac476-3e3e-4fc8-8008-1bee6ab65d93))
  (fp_line (start 16.06 0.14) (end 15.14 0.14)
    (stroke (width 0.12) (type solid)) (layer "F.SilkS") (tstamp 227bd09c-65f3-4fc5-9700-21218192705a))
  (fp_line (start 16.06 6.36) (end 16.06 -1.46)
    (stroke (width 0.12) (type solid)) (layer "F.SilkS") (tstamp 308ce18f-885d-4a52-a7a6-e1ced2d2f24d))
  (fp_line (start -2.45 -1.85) (end -2.45 6.75)
    (stroke (width 0.05) (type solid)) (layer "F.CrtYd") (tstamp b0887325-2d75-49c0-8904-24afca91e991))
  (fp_line (start -2.45 6.75) (end 16.45 6.75)
    (stroke (width 0.05) (type solid)) (layer "F.CrtYd") (tstamp ccbb681e-37d9-4807-b57e-16e13dec2e39))
  (fp_line (start 16.45 -1.85) (end -2.45 -1.85)
    (stroke (width 0.05) (type solid)) (layer "F.CrtYd") (tstamp 55b4245b-0b5b-41e1-96d9-67963dd3ba9f))
  (fp_line (start 16.45 6.75) (end 16.45 -1.85)
    (stroke (width 0.05) (type solid)) (layer "F.CrtYd") (tstamp f2962640-9722-40f7-84d1-5d1a338cd5ef))
  (fp_line (start -1.95 -1.35) (end -1.95 6.25)
    (stroke (width 0.1) (type solid)) (layer "F.Fab") (tstamp 5d822d06-ee52-49ce-a262-89e2610ab267))
  (fp_line (start -1.95 6.25) (end 15.95 6.25)
    (stroke (width 0.1) (type solid)) (layer "F.Fab") (tstamp 70b3ac9f-75a9-4c9b-93c2-2043d6d7a425))
  (fp_line (start -1.25 -1.35) (end -1.95 -1.35)
    (stroke (width 0.1) (type solid)) (layer "F.Fab") (tstamp 5ba93de4-bbe7-4eea-ad3d-6dac6fe23db2))
  (fp_line (start -1.25 0.25) (end -1.25 -1.35)
    (stroke (width 0.1) (type solid)) (layer "F.Fab") (tstamp 041aedfa-477b-4050-ad7d-0e2470f2c85d))
  (fp_line (start -0.5 1.375) (end 0.5 1.375)
    (stroke (width 0.1) (type solid)) (layer "F.Fab") (tstamp acb4cf83-b14f-44d3-88f3-f8689b024d50))
  (fp_line (start 0 0.875) (end -0.5 1.375)
    (stroke (width 0.1) (type solid)) (layer "F.Fab") (tstamp 1a786e06-5b12-450b-b7cd-a38b3204798c))
  (fp_line (start 0.5 1.375) (end 0 0.875)
    (stroke (width 0.1) (type solid)) (layer "F.Fab") (tstamp 0dec3b53-0101-429b-ba11-d42b4d7a52e6))
  (fp_line (start 15.25 -1.35) (end 15.25 0.25)
    (stroke (width 0.1) (type solid)) (layer "F.Fab") (tstamp 53a65367-d71e-46ce-b0c3-e293bffc17ee))
  (fp_line (start 15.25 0.25) (end -1.25 0.25)
    (stroke (width 0.1) (type solid)) (layer "F.Fab") (tstamp 96994083-93d1-4a5c-931a-1e83e26157bf))
  (fp_line (start 15.95 -1.35) (end 15.25 -1.35)
    (stroke (width 0.1) (type solid)) (layer "F.Fab") (tstamp ef703fb0-dd4e-48e8-94a5-7d5a7456c269))
  (fp_line (start 15.95 6.25) (end 15.95 -1.35)
    (stroke (width 0.1) (type solid)) (layer "F.Fab") (tstamp 462b938f-77f6-4de8-9ddf-233cbe26f70e))
  (pad "1" thru_hole circle (at 0 0) (size 1.2 1.2) (drill 0.75) (layers "*.Cu" "*.Mask") (tstamp bb3cacb6-a2b5-46ee-b4d3-fa4bdb3bf229))
  (pad "2" thru_hole circle (at 2 0) (size 1.2 1.2) (drill 0.75) (layers "*.Cu" "*.Mask") (tstamp 0013b4f0-f8e2-4fdc-9f33-cc2922550309))
  (pad "3" thru_hole circle (at 4 0) (size 1.2 1.2) (drill 0.75) (layers "*.Cu" "*.Mask") (tstamp c3612f1c-1a54-44c6-80ff-2ea8d12529b8))
  (pad "4" thru_hole circle (at 6 0) (size 1.2 1.2) (drill 0.75) (layers "*.Cu" "*.Mask") (tstamp ace31015-00aa-413c-8ead-9462f8aef198))
  (pad "5" thru_hole circle (at 8 0) (size 1.2 1.2) (drill 0.75) (layers "*.Cu" "*.Mask") (tstamp 2c1a15bf-acb5-4507-b0d7-fb76e11ebb9c))
  (pad "6" thru_hole circle (at 10 0) (size 1.2 1.2) (drill 0.75) (layers "*.Cu" "*.Mask") (tstamp a6f19512-b7ef-4333-8ff5-0fe04fe57779))
  (pad "7" thru_hole roundrect (at 12 0) (size 1.2 1.2) (drill 0.75) (layers "*.Cu" "*.Mask") (roundrect_rratio 0.25) (tstamp 68f534b1-fadd-4c93-b012-2229a9af58b2))
  (pad "8" thru_hole circle (at 14 0) (size 1.2 1.2) (drill 0.75) (layers "*.Cu" "*.Mask") (tstamp b00a8b6b-b4d9-4e2a-97f9-82c3ce06aa79))
  (model "${KICAD6_3DMODEL_DIR}/Connector_JST.3dshapes/JST_PH_S8B-PH-K_1x08_P2.00mm_Horizontal.wrl"
    (offset (xyz 0 0 0))
    (scale (xyz 1 1 1))
    (rotate (xyz 0 0 0))
  )
)
