(footprint "xiao-ble-tht-new" (version 20221018) (generator pcbnew)
  (layer "F.Cu")
  (attr through_hole)
  (fp_text reference "U?" (at -5.12 -11.98) (layer "F.SilkS") hide
      (effects (font (size 0.889 0.889) (thickness 0.1016)))
    (tstamp 1c479411-a194-4685-8eeb-e81966c16c7f)
  )
  (fp_text value "xiao-ble-thruhole" (at 1.7 -11.98 180) (layer "F.SilkS") hide
      (effects (font (size 0.6096 0.6096) (thickness 0.0762)))
    (tstamp d811e9ac-fc59-4c9b-8d93-83a5a9c048b6)
  )
  (fp_text user "Vin" (at 0.06 7.293333 90 unlocked) (layer "B.SilkS")
      (effects (font (size 0.7 0.7) (thickness 0.15)) (justify mirror))
    (tstamp 06f04686-3e54-4836-b03c-99465e2d73a0)
  )
  (fp_text user "-" (at -1.61 -2.24 unlocked) (layer "B.SilkS")
      (effects (font (size 1 1) (thickness 0.15)) (justify mirror))
    (tstamp 078317b7-4790-4cc2-a32d-c81c889fc0c2)
  )
  (fp_text user "XIAO" (at -2.96 9.81 unlocked) (layer "B.SilkS")
      (effects (font (size 1 1) (thickness 0.15)) (justify mirror))
    (tstamp 21f7d41e-5e15-44c9-9fb2-7507921e11ae)
  )
  (fp_text user "6" (at -4.53 7.64 unlocked) (layer "B.SilkS")
      (effects (font (size 1 1) (thickness 0.15)) (justify mirror))
    (tstamp 271d0645-8505-471f-b437-d6c6c4f6bb1b)
  )
  (fp_text user "1" (at -4.53 -5.1 unlocked) (layer "B.SilkS")
      (effects (font (size 1 1) (thickness 0.15)) (justify mirror))
    (tstamp 2d97cdeb-cd51-4566-93c4-b6a48a913c47)
  )
  (fp_text user "+" (at -1.61 -0.4 unlocked) (layer "B.SilkS")
      (effects (font (size 1 1) (thickness 0.15)) (justify mirror))
    (tstamp 35f414c0-5f6d-413f-be8c-9271c83b78fe)
  )
  (fp_text user "gnd" (at 2.69 7.126667 90 unlocked) (layer "B.SilkS")
      (effects (font (size 0.7 0.7) (thickness 0.15)) (justify mirror))
    (tstamp 3c138b7b-da01-4d09-96b6-3f3cebc588b1)
  )
  (fp_text user "7" (at 7.56 7.22 unlocked) (layer "B.SilkS")
      (effects (font (size 1 1) (thickness 0.15)) (justify mirror))
    (tstamp 41bfdf08-812f-443c-9261-896ee21bcaea)
  )
  (fp_text user "3" (at -4.53 0.02) (layer "B.SilkS")
      (effects (font (size 1 1) (thickness 0.15)) (justify mirror))
    (tstamp 4e8aab81-6891-4dc8-8f80-7ac764ea0596)
  )
  (fp_text user "nfc" (at 5.48 7.25 unlocked) (layer "B.SilkS")
      (effects (font (size 1 1) (thickness 0.15)) (justify mirror))
    (tstamp 6773aef6-1fc3-424a-b739-7b6a3dcbbb7a)
  )
  (fp_text user "9" (at 7.56 2.46 unlocked) (layer "B.SilkS")
      (effects (font (size 1 1) (thickness 0.15)) (justify mirror))
    (tstamp 6c19bc82-5a2b-4eda-87c7-7accf1aa6a84)
  )
  (fp_text user "5" (at -4.53 5.23 unlocked) (layer "B.SilkS")
      (effects (font (size 1 1) (thickness 0.15)) (justify mirror))
    (tstamp 7dd76dd9-77c6-4800-92b8-bd01d7daaff8)
  )
  (fp_text user "4" (at -4.53 2.59 unlocked) (layer "B.SilkS")
      (effects (font (size 1 1) (thickness 0.15)) (justify mirror))
    (tstamp 8444899b-208b-4740-8ece-e45792df4cf9)
  )
  (fp_text user "GND" (at 6.512381 -5.21 unlocked) (layer "B.SilkS")
      (effects (font (size 1 1) (thickness 0.15)) (justify mirror))
    (tstamp 95e10196-95f8-48c4-8f12-29ae311da283)
  )
  (fp_text user "bat" (at -2.41 1.38 unlocked) (layer "B.SilkS")
      (effects (font (size 1 1) (thickness 0.15)) (justify mirror))
    (tstamp 96564c77-69a0-4c21-a117-edf8fb474d08)
  )
  (fp_text user "8" (at 7.56 5.16 unlocked) (layer "B.SilkS")
      (effects (font (size 1 1) (thickness 0.15)) (justify mirror))
    (tstamp 98d24be9-6eee-4061-846e-17e5b3959da4)
  )
  (fp_text user "5V" (at 7.131429 -7.47 unlocked) (layer "B.SilkS")
      (effects (font (size 1 1) (thickness 0.15)) (justify mirror))
    (tstamp 99c34487-f1f2-4838-b379-9ca31f6d88f7)
  )
  (fp_text user "2" (at -4.53 -2.5 unlocked) (layer "B.SilkS")
      (effects (font (size 1 1) (thickness 0.15)) (justify mirror))
    (tstamp a9aaecc9-ffca-42e1-920f-d0f71771dcb4)
  )
  (fp_text user "0" (at -4.53 -7.44 unlocked) (layer "B.SilkS")
      (effects (font (size 1 1) (thickness 0.15)) (justify mirror))
    (tstamp be3b7a3f-717e-445d-9064-92c9dab0a221)
  )
  (fp_text user "3V3" (at 6.655238 -2.37 unlocked) (layer "B.SilkS")
      (effects (font (size 1 1) (thickness 0.15)) (justify mirror))
    (tstamp db89318f-60ee-47f3-8e09-caa44fe21bee)
  )
  (fp_text user "10" (at 7.08381 -0.04 unlocked) (layer "B.SilkS")
      (effects (font (size 1 1) (thickness 0.15)) (justify mirror))
    (tstamp eee61430-b596-4455-a079-3fc10f5db112)
  )
  (fp_text user "${REFERENCE}" (at -5 11.51 -90) (layer "B.SilkS")
      (effects (font (size 1 1) (thickness 0.15)) (justify mirror))
    (tstamp fac56219-d3e2-4488-8e22-8a0e63de87a9)
  )
  (fp_text user "6" (at -7.78 2.67 unlocked) (layer "F.SilkS")
      (effects (font (size 0.7 0.7) (thickness 0.1)))
    (tstamp 00374ca6-4b37-4f63-8d4c-b75f50fad7e0)
  )
  (fp_text user "7" (at -7.78 5.3 unlocked) (layer "F.SilkS")
      (effects (font (size 0.7 0.7) (thickness 0.1)))
    (tstamp 06011dcf-aab0-4ede-8505-bed4817d8f9d)
  )
  (fp_text user "+" (at -1.61 -0.37 unlocked) (layer "F.SilkS")
      (effects (font (size 1 1) (thickness 0.15)))
    (tstamp 1e44c761-e9dc-404c-a111-eaa646d86c0e)
  )
  (fp_text user "26" (at -7.78 -7.36 unlocked) (layer "F.SilkS")
      (effects (font (size 0.7 0.7) (thickness 0.1)))
    (tstamp 2aeb1a20-28ab-4858-a2dc-8f49b5814baa)
  )
  (fp_text user "bat" (at -2.37 1.46 unlocked) (layer "F.SilkS")
      (effects (font (size 1 1) (thickness 0.15)))
    (tstamp 38f39119-d277-4b86-ae19-253b2aa1c1e8)
  )
  (fp_text user "1" (at 10.741428 7.52 unlocked) (layer "F.SilkS")
      (effects (font (size 0.7 0.7) (thickness 0.1)))
    (tstamp 394dbc57-8d79-4aaa-a50b-81c081cdca42)
  )
  (fp_text user "5V" (at 11.17 -7.61 unlocked) (layer "F.SilkS")
      (effects (font (size 0.7 0.7) (thickness 0.1)))
    (tstamp 525662c9-9b06-4b09-9ad4-1b963c9378f5)
  )
  (fp_text user "-" (at -1.61 -2.27 unlocked) (layer "F.SilkS")
      (effects (font (size 1 1) (thickness 0.15)))
    (tstamp 536d88b7-c7b1-4fc1-afaa-cdea18c779d9)
  )
  (fp_text user "G" (at 10.886667 -5.05 unlocked) (layer "F.SilkS")
      (effects (font (size 0.7 0.7) (thickness 0.1)))
    (tstamp 56472af7-918a-48a7-8ce5-37c1be1e21f9)
  )
  (fp_text user "0" (at -7.78 7.75 unlocked) (layer "F.SilkS")
      (effects (font (size 0.7 0.7) (thickness 0.1)))
    (tstamp 5fdabc5c-b4ca-406f-81ad-8f30cfeb861d)
  )
  (fp_text user "nfc" (at 5.51 7.25 unlocked) (layer "F.SilkS")
      (effects (font (size 1 1) (thickness 0.15)))
    (tstamp 83f1c05c-f78a-432a-bad0-21f71e06df15)
  )
  (fp_text user "${REFERENCE}" (at -5 11.56 -90) (layer "F.SilkS")
      (effects (font (size 1 1) (thickness 0.15)))
    (tstamp 84234356-f800-422d-a6b3-46ec34f781e2)
  )
  (fp_text user "2" (at 10.741428 5.18 unlocked) (layer "F.SilkS")
      (effects (font (size 0.7 0.7) (thickness 0.1)))
    (tstamp 9ae9b805-052d-4b30-aacb-57d1141e1f91)
  )
  (fp_text user "gnd" (at 2.65 7.126667 90 unlocked) (layer "F.SilkS")
      (effects (font (size 0.7 0.7) (thickness 0.15)))
    (tstamp a5a6ef0c-21a0-41bb-b51c-a3a300312418)
  )
  (fp_text user "XIAO" (at -5.26 9.81 unlocked) (layer "F.SilkS")
      (effects (font (size 1 1) (thickness 0.15)))
    (tstamp a6996e67-95c9-4ec7-bc55-032f4bfc0c9d)
  )
  (fp_text user "3V3" (at 11.503334 -2.58 unlocked) (layer "F.SilkS")
      (effects (font (size 0.7 0.7) (thickness 0.1)))
    (tstamp b70aed1d-aeec-42b8-bf5b-65ac0b833142)
  )
  (fp_text user "27" (at -7.78 -5.03 unlocked) (layer "F.SilkS")
      (effects (font (size 0.7 0.7) (thickness 0.1)))
    (tstamp b9baae94-819e-412b-8eda-1fc2b872c6d6)
  )
  (fp_text user "29" (at -7.78 0.1) (layer "F.SilkS")
      (effects (font (size 0.7 0.7) (thickness 0.1)))
    (tstamp d0fa2586-c175-4344-b11f-2723ccb66204)
  )
  (fp_text user "4" (at 10.741428 2.62 unlocked) (layer "F.SilkS")
      (effects (font (size 0.7 0.7) (thickness 0.1)))
    (tstamp d62c3e42-dff5-48de-a0a6-40db35f46649)
  )
  (fp_text user "Vin" (at 0.15 7.293333 90 unlocked) (layer "F.SilkS")
      (effects (font (size 0.7 0.7) (thickness 0.15)))
    (tstamp eba115d4-201e-4c23-b872-5347506c6ec1)
  )
  (fp_text user "3" (at 10.741428 0.11 unlocked) (layer "F.SilkS")
      (effects (font (size 0.7 0.7) (thickness 0.1)))
    (tstamp f37b045b-32f7-46a1-b9e7-7783a149619b)
  )
  (fp_text user "28" (at -7.78 -2.41 unlocked) (layer "F.SilkS")
      (effects (font (size 0.7 0.7) (thickness 0.1)))
    (tstamp fda19cb3-9a56-4ad2-9646-8c893e33df03)
  )
  (fp_rect (start 0.83 -3.06) (end -3.82 0.54)
    (stroke (width 0.12) (type solid)) (fill none) (layer "F.SilkS") (tstamp 4dadc71c-98cf-467a-a5ca-6b9e65f1c3f1))
  (fp_rect (start 8.06 7.96) (end 4.46 10.2)
    (stroke (width 0.12) (type solid)) (fill none) (layer "F.SilkS") (tstamp 3b62f7f3-00f2-40c6-b435-f738be023aba))
  (fp_rect (start -1.810197 -10.849813) (end -3.588197 -8.182813)
    (stroke (width 0.12) (type solid)) (fill none) (layer "Dwgs.User") (tstamp bb88374b-bed5-4557-ac17-b524808b3664))
  (fp_rect (start -1.810197 -6.785813) (end -3.588197 -4.118813)
    (stroke (width 0.12) (type solid)) (fill none) (layer "Dwgs.User") (tstamp a1111a45-eeef-42a4-8ca2-b88859685c82))
  (fp_rect (start 5.047811 -8.182813) (end 6.825811 -10.849813)
    (stroke (width 0.12) (type solid)) (fill none) (layer "Dwgs.User") (tstamp a6f271d5-ba8a-454d-80cb-5f2f863f2343))
  (fp_rect (start 6.825811 -6.785813) (end 5.047811 -4.118813)
    (stroke (width 0.12) (type solid)) (fill none) (layer "Dwgs.User") (tstamp f5248a36-36cb-4bf1-a463-d1ff91adf3ac))
  (fp_rect (start 10.43 10.5) (end -7.35 -10.5)
    (stroke (width 0.12) (type solid)) (fill none) (layer "Dwgs.User") (tstamp 116e44aa-10c6-4541-8b90-5b7a2f5434bd))
  (pad "1" thru_hole circle (at -6.08 -7.62 180) (size 1.6 1.6) (drill 1) (layers "*.Cu" "*.Mask") (tstamp ae516570-a837-4ec7-a722-6d190e57c256))
  (pad "2" thru_hole circle (at -6.08 -5.08 180) (size 1.6 1.6) (drill 1) (layers "*.Cu" "*.Mask") (tstamp 2338eb22-64ca-4f30-8ba1-2f7cf75ffba1))
  (pad "3" thru_hole circle (at -6.08 -2.54 180) (size 1.6 1.6) (drill 1) (layers "*.Cu" "*.Mask") (tstamp 890f2928-0780-4ddd-8ccb-24fccaa5c6fc))
  (pad "4" thru_hole circle (at -6.08 0 180) (size 1.6 1.6) (drill 1) (layers "*.Cu" "*.Mask") (tstamp 4522c285-a407-4012-88ce-5549f5f2a2d9))
  (pad "5" thru_hole circle (at -6.08 2.54 180) (size 1.6 1.6) (drill 1) (layers "*.Cu" "*.Mask") (tstamp 0a4f1792-568b-402b-9700-fd4b01130ff8))
  (pad "6" thru_hole circle (at -6.08 5.08 180) (size 1.6 1.6) (drill 1) (layers "*.Cu" "*.Mask") (tstamp 867e444b-3681-4baf-9d08-1188c3544771))
  (pad "7" thru_hole circle (at -6.08 7.62 180) (size 1.6 1.6) (drill 1) (layers "*.Cu" "*.Mask") (tstamp 9c4384c0-9a57-4262-8711-eec9b8ecb4c6))
  (pad "8" thru_hole circle (at 9.16 7.62) (size 1.6 1.6) (drill 1) (layers "*.Cu" "*.Mask") (tstamp a20b891b-a240-411f-9914-9ac989f03074))
  (pad "9" thru_hole circle (at 9.16 5.08) (size 1.6 1.6) (drill 1) (layers "*.Cu" "*.Mask") (tstamp 761a1a33-98a4-41af-9660-18c12d51b442))
  (pad "10" thru_hole circle (at 9.16 2.54) (size 1.6 1.6) (drill 1) (layers "*.Cu" "*.Mask") (tstamp 2caa1d4c-02f2-443a-a145-dc5854878c73))
  (pad "11" thru_hole circle (at 9.16 0) (size 1.6 1.6) (drill 1) (layers "*.Cu" "*.Mask") (tstamp 1b7a2775-7631-4d4f-8b27-ab588adb3b7d))
  (pad "12" thru_hole circle (at 9.16 -2.54) (size 1.6 1.6) (drill 1) (layers "*.Cu" "*.Mask") (tstamp 75b890e6-df6d-4a6e-acaa-0870cda0d189))
  (pad "13" thru_hole circle (at 9.16 -5.08) (size 1.6 1.6) (drill 1) (layers "*.Cu" "*.Mask") (tstamp e4d9ec61-16f7-410d-891d-89481964ef82))
  (pad "14" thru_hole circle (at 9.16 -7.62) (size 1.6 1.6) (drill 1) (layers "*.Cu" "*.Mask") (tstamp 8a11f86e-586e-495d-a11e-a1e650589934))
  (pad "15" thru_hole circle (at 2.81 -8.572 270) (size 1.397 1.397) (drill 1.016) (layers "*.Cu" "*.Mask") (tstamp b370e60c-b738-4596-b4de-5ade258f269e))
  (pad "16" thru_hole circle (at 0.27 -8.572 270) (size 1.397 1.397) (drill 1.016) (layers "*.Cu" "*.Mask") (tstamp 19c0bd2b-6b0e-4d97-a0be-01d0c6efb6b0))
  (pad "17" thru_hole circle (at 2.81 -6.032 270) (size 1.397 1.397) (drill 1.016) (layers "*.Cu" "*.Mask") (tstamp 0a24ded2-bf71-4e3b-b256-1f46996c2720))
  (pad "18" thru_hole circle (at 0.27 -6.032 270) (size 1.397 1.397) (drill 1.016) (layers "*.Cu" "*.Mask") (tstamp 5aa3a350-81ea-4759-8164-45e4cfc68b3a))
  (pad "19" thru_hole circle (at -2.905 -2.222 180) (size 1.397 1.397) (drill 1.016) (layers "*.Cu" "*.Mask") (tstamp 4a564fab-879b-49c4-b927-6f8f249dc7f0))
  (pad "19" thru_hole circle (at 2.81 8.835 90) (size 1.397 1.397) (drill 1.016) (layers "*.Cu" "*.Mask") (tstamp 34bca91b-de3f-4d61-aca8-09e52f42dcd3))
  (pad "20" thru_hole circle (at -2.905 -0.317 180) (size 1.397 1.397) (drill 1.016) (layers "*.Cu" "*.Mask") (tstamp 79509df8-dd6d-474b-bcaa-263daec27871))
  (pad "20" thru_hole circle (at 0.27 8.835 90) (size 1.397 1.397) (drill 1.016) (layers "*.Cu" "*.Mask") (tstamp 0d56b51c-bbef-4917-96af-47a7f2cad61e))
  (pad "21" thru_hole circle (at 5.35 9.208 270) (size 1.397 1.397) (drill 1.016) (layers "*.Cu" "*.Mask") (tstamp faaa6cbd-5b1e-4809-af1e-d670ea3421a9))
  (pad "22" thru_hole circle (at 7.255 9.208 270) (size 1.397 1.397) (drill 1.016) (layers "*.Cu" "*.Mask") (tstamp 10b1ec97-e390-4fc6-b0ba-a83b18234dcb))
  (model "${KICAD6_3DMODEL_DIR}/Connector_PinHeader_2.54mm.3dshapes/PinHeader_1x07_P2.54mm_Vertical.step"
    (offset (xyz -6 7.5 9.5))
    (scale (xyz 1 1 1))
    (rotate (xyz 0 180 0))
  )
  (model "${KICAD6_3DMODEL_DIR}/Connector_PinHeader_2.54mm.3dshapes/PinHeader_1x07_P2.54mm_Vertical.step"
    (offset (xyz 9 7.5 9.5))
    (scale (xyz 1 1 1))
    (rotate (xyz 0 180 0))
  )
  (model "${KICAD6_3DMODEL_DIR}/Connector_PinHeader_2.54mm.3dshapes/PinHeader_1x02_P2.54mm_Vertical.step"
    (offset (xyz 3 -8.5 1))
    (scale (xyz 1 1 1))
    (rotate (xyz 0 0 90))
  )
  (model "${KICAD6_3DMODEL_DIR}/Connector_PinHeader_2.54mm.3dshapes/PinHeader_1x02_P2.54mm_Vertical.step"
    (offset (xyz -3 2.5 1))
    (scale (xyz 1 1 1))
    (rotate (xyz 0 0 0))
  )
  (model "${KICAD6_3DMODEL_DIR}/Connector_PinSocket_2.54mm.3dshapes/PinSocket_1x07_P2.54mm_Vertical.step"
    (offset (xyz -6 7.5 0))
    (scale (xyz 1 1 1))
    (rotate (xyz 0 0 0))
  )
  (model "${KICAD6_3DMODEL_DIR}/Connector_PinSocket_2.54mm.3dshapes/PinSocket_1x07_P2.54mm_Vertical.step"
    (offset (xyz 9 7.5 0))
    (scale (xyz 1 1 1))
    (rotate (xyz 0 0 0))
  )
  (model "${KIPRJMOD}/packages3d/Seeed Studio XIAO RP2040 v26.step"
    (offset (xyz 1.5 0 9.5))
    (scale (xyz 1 1 1))
    (rotate (xyz 0 0 0))
  )
)
